(kicad_symbol_lib (version 20210619) (generator kicad_symbol_editor)
  (symbol "(S)NES:NES" (in_bom yes) (on_board yes)
    (property "Reference" "J" (id 0) (at 0 7.112 0)
      (effects (font (size 1.27 1.27)))
    )
    (property "Value" "NES" (id 1) (at 0 -7.62 0)
      (effects (font (size 1.27 1.27)))
    )
    (property "Footprint" "(S)NES:NES horizontal" (id 2) (at 0 0 0)
      (effects (font (size 1.27 1.27)) hide)
    )
    (property "Datasheet" "" (id 3) (at 0 0 0)
      (effects (font (size 1.27 1.27)) hide)
    )
    (symbol "NES_0_1"
      (rectangle (start -7.62 5.334) (end 7.62 -5.842)
        (stroke (width 0.1524)) (fill (type background))
      )
    )
    (symbol "NES_1_1"
      (pin power_in line (at -10.16 3.81 0) (length 2.54)
        (name "GND" (effects (font (size 1.27 1.27))))
        (number "1" (effects (font (size 1.27 1.27))))
      )
      (pin output line (at -10.16 1.27 0) (length 2.54)
        (name "CLK" (effects (font (size 1.27 1.27))))
        (number "2" (effects (font (size 1.27 1.27))))
      )
      (pin output line (at -10.16 -1.27 0) (length 2.54)
        (name "LATCH" (effects (font (size 1.27 1.27))))
        (number "3" (effects (font (size 1.27 1.27))))
      )
      (pin input line (at -10.16 -3.81 0) (length 2.54)
        (name "DATA" (effects (font (size 1.27 1.27))))
        (number "4" (effects (font (size 1.27 1.27))))
      )
      (pin power_out line (at 10.16 1.27 180) (length 2.54)
        (name "VCC" (effects (font (size 1.27 1.27))))
        (number "5" (effects (font (size 1.27 1.27))))
      )
      (pin bidirectional line (at 10.16 -1.27 180) (length 2.54)
        (name "OPT1" (effects (font (size 1.27 1.27))))
        (number "6" (effects (font (size 1.27 1.27))))
      )
      (pin bidirectional line (at 10.16 -3.81 180) (length 2.54)
        (name "OPT2" (effects (font (size 1.27 1.27))))
        (number "7" (effects (font (size 1.27 1.27))))
      )
    )
  )
  (symbol "(S)NES:SNES" (in_bom yes) (on_board yes)
    (property "Reference" "J" (id 0) (at 0 11.938 0)
      (effects (font (size 1.27 1.27)))
    )
    (property "Value" "SNES" (id 1) (at 0 -11.938 0)
      (effects (font (size 1.27 1.27)))
    )
    (property "Footprint" "(S)NES:SNES vertical" (id 2) (at -1.016 0 0)
      (effects (font (size 1.27 1.27)) hide)
    )
    (property "Datasheet" "" (id 3) (at -1.016 0 0)
      (effects (font (size 1.27 1.27)) hide)
    )
    (symbol "SNES_0_0"
      (pin power_out line (at -5.08 8.89 0) (length 2.54)
        (name "GND" (effects (font (size 1.27 1.27))))
        (number "1" (effects (font (size 1.27 1.27))))
      )
      (pin power_out line (at -5.08 6.35 0) (length 2.54)
        (name "SEL" (effects (font (size 1.27 1.27))))
        (number "2" (effects (font (size 1.27 1.27))))
      )
      (pin input line (at -5.08 3.81 0) (length 2.54)
        (name "DATA2" (effects (font (size 1.27 1.27))))
        (number "3" (effects (font (size 1.27 1.27))))
      )
      (pin input line (at -5.08 -1.27 0) (length 2.54)
        (name "DATA1" (effects (font (size 1.27 1.27))))
        (number "4" (effects (font (size 1.27 1.27))))
      )
      (pin output line (at -5.08 -3.81 0) (length 2.54)
        (name "LATCH" (effects (font (size 1.27 1.27))))
        (number "5" (effects (font (size 1.27 1.27))))
      )
      (pin output line (at -5.08 -6.35 0) (length 2.54)
        (name "CLK" (effects (font (size 1.27 1.27))))
        (number "6" (effects (font (size 1.27 1.27))))
      )
      (pin power_out line (at -5.08 -8.89 0) (length 2.54)
        (name "5V" (effects (font (size 1.27 1.27))))
        (number "7" (effects (font (size 1.27 1.27))))
      )
    )
    (symbol "SNES_0_1"
      (rectangle (start -2.54 10.668) (end 4.826 -10.414)
        (stroke (width 0.1524)) (fill (type background))
      )
    )
  )
)
