(kicad_sch (version 20210621) (generator eeschema)

  (uuid cc30a160-8e75-4db9-9350-a6281083f595)

  (paper "A4")

  (title_block
    (title "Nintendo NES quad")
    (date "2021-09-08")
    (rev "1")
  )

  (lib_symbols
    (symbol "(S)NES:NES" (in_bom yes) (on_board yes)
      (property "Reference" "J" (id 0) (at 0 7.112 0)
        (effects (font (size 1.27 1.27)))
      )
      (property "Value" "NES" (id 1) (at 0 -7.62 0)
        (effects (font (size 1.27 1.27)))
      )
      (property "Footprint" "(S)NES:NES horizontal" (id 2) (at 0 0 0)
        (effects (font (size 1.27 1.27)) hide)
      )
      (property "Datasheet" "" (id 3) (at 0 0 0)
        (effects (font (size 1.27 1.27)) hide)
      )
      (symbol "NES_0_1"
        (rectangle (start -7.62 5.334) (end 7.62 -5.842)
          (stroke (width 0.1524)) (fill (type background))
        )
      )
      (symbol "NES_1_1"
        (pin power_in line (at -10.16 3.81 0) (length 2.54)
          (name "GND" (effects (font (size 1.27 1.27))))
          (number "1" (effects (font (size 1.27 1.27))))
        )
        (pin output line (at -10.16 1.27 0) (length 2.54)
          (name "CLK" (effects (font (size 1.27 1.27))))
          (number "2" (effects (font (size 1.27 1.27))))
        )
        (pin output line (at -10.16 -1.27 0) (length 2.54)
          (name "LATCH" (effects (font (size 1.27 1.27))))
          (number "3" (effects (font (size 1.27 1.27))))
        )
        (pin input line (at -10.16 -3.81 0) (length 2.54)
          (name "DATA" (effects (font (size 1.27 1.27))))
          (number "4" (effects (font (size 1.27 1.27))))
        )
        (pin power_out line (at 10.16 1.27 180) (length 2.54)
          (name "VCC" (effects (font (size 1.27 1.27))))
          (number "5" (effects (font (size 1.27 1.27))))
        )
        (pin bidirectional line (at 10.16 -1.27 180) (length 2.54)
          (name "OPT1" (effects (font (size 1.27 1.27))))
          (number "6" (effects (font (size 1.27 1.27))))
        )
        (pin bidirectional line (at 10.16 -3.81 180) (length 2.54)
          (name "OPT2" (effects (font (size 1.27 1.27))))
          (number "7" (effects (font (size 1.27 1.27))))
        )
      )
    )
    (symbol "Pro Micro:Pro_Micro" (in_bom yes) (on_board yes)
      (property "Reference" "M" (id 0) (at 0 17.018 0)
        (effects (font (size 1.27 1.27)))
      )
      (property "Value" "Pro_Micro" (id 1) (at 0 -17.272 0)
        (effects (font (size 1.27 1.27)))
      )
      (property "Footprint" "Pro Micro:Pro Micro" (id 2) (at 0 0 0)
        (effects (font (size 1.27 1.27)) hide)
      )
      (property "Datasheet" "https://www.sparkfun.com/products/12640" (id 3) (at 0 0 0)
        (effects (font (size 1.27 1.27)) hide)
      )
      (symbol "Pro_Micro_0_1"
        (rectangle (start -8.89 15.494) (end 8.89 -15.494)
          (stroke (width 0.1524)) (fill (type background))
        )
      )
      (symbol "Pro_Micro_1_1"
        (pin output line (at -11.43 13.97 0) (length 2.54)
          (name "TXD" (effects (font (size 1.27 1.27))))
          (number "1" (effects (font (size 1.27 1.27))))
        )
        (pin bidirectional line (at -11.43 -8.89 0) (length 2.54)
          (name "D7" (effects (font (size 1.27 1.27))))
          (number "10" (effects (font (size 1.27 1.27))))
        )
        (pin bidirectional line (at -11.43 -11.43 0) (length 2.54)
          (name "D8" (effects (font (size 1.27 1.27))))
          (number "11" (effects (font (size 1.27 1.27))))
        )
        (pin bidirectional line (at -11.43 -13.97 0) (length 2.54)
          (name "D9" (effects (font (size 1.27 1.27))))
          (number "12" (effects (font (size 1.27 1.27))))
        )
        (pin bidirectional line (at 11.43 -13.97 180) (length 2.54)
          (name "D10" (effects (font (size 1.27 1.27))))
          (number "13" (effects (font (size 1.27 1.27))))
        )
        (pin bidirectional line (at 11.43 -11.43 180) (length 2.54)
          (name "D16" (effects (font (size 1.27 1.27))))
          (number "14" (effects (font (size 1.27 1.27))))
        )
        (pin bidirectional line (at 11.43 -8.89 180) (length 2.54)
          (name "D14" (effects (font (size 1.27 1.27))))
          (number "15" (effects (font (size 1.27 1.27))))
        )
        (pin bidirectional line (at 11.43 -6.35 180) (length 2.54)
          (name "D15" (effects (font (size 1.27 1.27))))
          (number "16" (effects (font (size 1.27 1.27))))
        )
        (pin bidirectional line (at 11.43 -3.81 180) (length 2.54)
          (name "A0" (effects (font (size 1.27 1.27))))
          (number "17" (effects (font (size 1.27 1.27))))
        )
        (pin bidirectional line (at 11.43 -1.27 180) (length 2.54)
          (name "A1" (effects (font (size 1.27 1.27))))
          (number "18" (effects (font (size 1.27 1.27))))
        )
        (pin bidirectional line (at 11.43 1.27 180) (length 2.54)
          (name "A2" (effects (font (size 1.27 1.27))))
          (number "19" (effects (font (size 1.27 1.27))))
        )
        (pin input line (at -11.43 11.43 0) (length 2.54)
          (name "RXD" (effects (font (size 1.27 1.27))))
          (number "2" (effects (font (size 1.27 1.27))))
        )
        (pin bidirectional line (at 11.43 3.81 180) (length 2.54)
          (name "A3" (effects (font (size 1.27 1.27))))
          (number "20" (effects (font (size 1.27 1.27))))
        )
        (pin bidirectional line (at 11.43 6.35 180) (length 2.54)
          (name "VCC" (effects (font (size 1.27 1.27))))
          (number "21" (effects (font (size 1.27 1.27))))
        )
        (pin input line (at 11.43 8.89 180) (length 2.54)
          (name "RST" (effects (font (size 1.27 1.27))))
          (number "22" (effects (font (size 1.27 1.27))))
        )
        (pin bidirectional line (at 11.43 11.43 180) (length 2.54)
          (name "GND" (effects (font (size 1.27 1.27))))
          (number "23" (effects (font (size 1.27 1.27))))
        )
        (pin power_in line (at 11.43 13.97 180) (length 2.54)
          (name "RAW" (effects (font (size 1.27 1.27))))
          (number "24" (effects (font (size 1.27 1.27))))
        )
        (pin bidirectional line (at -11.43 8.89 0) (length 2.54)
          (name "GND" (effects (font (size 1.27 1.27))))
          (number "3" (effects (font (size 1.27 1.27))))
        )
        (pin bidirectional line (at -11.43 6.35 0) (length 2.54)
          (name "GND" (effects (font (size 1.27 1.27))))
          (number "4" (effects (font (size 1.27 1.27))))
        )
        (pin bidirectional line (at -11.43 3.81 0) (length 2.54)
          (name "D2" (effects (font (size 1.27 1.27))))
          (number "5" (effects (font (size 1.27 1.27))))
        )
        (pin bidirectional line (at -11.43 1.27 0) (length 2.54)
          (name "D3" (effects (font (size 1.27 1.27))))
          (number "6" (effects (font (size 1.27 1.27))))
        )
        (pin bidirectional line (at -11.43 -1.27 0) (length 2.54)
          (name "D4" (effects (font (size 1.27 1.27))))
          (number "7" (effects (font (size 1.27 1.27))))
        )
        (pin bidirectional line (at -11.43 -3.81 0) (length 2.54)
          (name "D5" (effects (font (size 1.27 1.27))))
          (number "8" (effects (font (size 1.27 1.27))))
        )
        (pin bidirectional line (at -11.43 -6.35 0) (length 2.54)
          (name "D6" (effects (font (size 1.27 1.27))))
          (number "9" (effects (font (size 1.27 1.27))))
        )
      )
    )
    (symbol "power:+5V" (power) (pin_names (offset 0)) (in_bom yes) (on_board yes)
      (property "Reference" "#PWR" (id 0) (at 0 -3.81 0)
        (effects (font (size 1.27 1.27)) hide)
      )
      (property "Value" "+5V" (id 1) (at 0 3.556 0)
        (effects (font (size 1.27 1.27)))
      )
      (property "Footprint" "" (id 2) (at 0 0 0)
        (effects (font (size 1.27 1.27)) hide)
      )
      (property "Datasheet" "" (id 3) (at 0 0 0)
        (effects (font (size 1.27 1.27)) hide)
      )
      (property "ki_keywords" "power-flag" (id 4) (at 0 0 0)
        (effects (font (size 1.27 1.27)) hide)
      )
      (property "ki_description" "Power symbol creates a global label with name \"+5V\"" (id 5) (at 0 0 0)
        (effects (font (size 1.27 1.27)) hide)
      )
      (symbol "+5V_0_1"
        (polyline
          (pts
            (xy -0.762 1.27)
            (xy 0 2.54)
          )
          (stroke (width 0)) (fill (type none))
        )
        (polyline
          (pts
            (xy 0 0)
            (xy 0 2.54)
          )
          (stroke (width 0)) (fill (type none))
        )
        (polyline
          (pts
            (xy 0 2.54)
            (xy 0.762 1.27)
          )
          (stroke (width 0)) (fill (type none))
        )
      )
      (symbol "+5V_1_1"
        (pin power_in line (at 0 0 90) (length 0) hide
          (name "+5V" (effects (font (size 1.27 1.27))))
          (number "1" (effects (font (size 1.27 1.27))))
        )
      )
    )
    (symbol "power:GND" (power) (pin_names (offset 0)) (in_bom yes) (on_board yes)
      (property "Reference" "#PWR" (id 0) (at 0 -6.35 0)
        (effects (font (size 1.27 1.27)) hide)
      )
      (property "Value" "GND" (id 1) (at 0 -3.81 0)
        (effects (font (size 1.27 1.27)))
      )
      (property "Footprint" "" (id 2) (at 0 0 0)
        (effects (font (size 1.27 1.27)) hide)
      )
      (property "Datasheet" "" (id 3) (at 0 0 0)
        (effects (font (size 1.27 1.27)) hide)
      )
      (property "ki_keywords" "power-flag" (id 4) (at 0 0 0)
        (effects (font (size 1.27 1.27)) hide)
      )
      (property "ki_description" "Power symbol creates a global label with name \"GND\" , ground" (id 5) (at 0 0 0)
        (effects (font (size 1.27 1.27)) hide)
      )
      (symbol "GND_0_1"
        (polyline
          (pts
            (xy 0 0)
            (xy 0 -1.27)
            (xy 1.27 -1.27)
            (xy 0 -2.54)
            (xy -1.27 -1.27)
            (xy 0 -1.27)
          )
          (stroke (width 0)) (fill (type none))
        )
      )
      (symbol "GND_1_1"
        (pin power_in line (at 0 0 270) (length 0) hide
          (name "GND" (effects (font (size 1.27 1.27))))
          (number "1" (effects (font (size 1.27 1.27))))
        )
      )
    )
  )

  (junction (at 37.846 45.974) (diameter 1.016) (color 0 0 0 0))

  (no_connect (at 41.656 38.354) (uuid e1ba7a0a-bae5-41ca-93d5-37daf1bbcc23))
  (no_connect (at 41.656 40.894) (uuid e1ba7a0a-bae5-41ca-93d5-37daf1bbcc23))
  (no_connect (at 41.656 53.594) (uuid e1ba7a0a-bae5-41ca-93d5-37daf1bbcc23))
  (no_connect (at 41.656 56.134) (uuid e1ba7a0a-bae5-41ca-93d5-37daf1bbcc23))
  (no_connect (at 41.656 58.674) (uuid e1ba7a0a-bae5-41ca-93d5-37daf1bbcc23))
  (no_connect (at 41.656 61.214) (uuid e1ba7a0a-bae5-41ca-93d5-37daf1bbcc23))
  (no_connect (at 41.656 63.754) (uuid e1ba7a0a-bae5-41ca-93d5-37daf1bbcc23))
  (no_connect (at 41.656 66.294) (uuid e1ba7a0a-bae5-41ca-93d5-37daf1bbcc23))
  (no_connect (at 64.516 38.354) (uuid e1ba7a0a-bae5-41ca-93d5-37daf1bbcc23))
  (no_connect (at 64.516 43.434) (uuid e1ba7a0a-bae5-41ca-93d5-37daf1bbcc23))
  (no_connect (at 64.516 58.674) (uuid e1ba7a0a-bae5-41ca-93d5-37daf1bbcc23))
  (no_connect (at 64.516 61.214) (uuid e1ba7a0a-bae5-41ca-93d5-37daf1bbcc23))
  (no_connect (at 64.516 63.754) (uuid e1ba7a0a-bae5-41ca-93d5-37daf1bbcc23))
  (no_connect (at 64.516 66.294) (uuid e1ba7a0a-bae5-41ca-93d5-37daf1bbcc23))
  (no_connect (at 146.05 41.91) (uuid 4abf3dad-0128-4e5f-9a28-dbdefda34458))
  (no_connect (at 146.05 44.45) (uuid bd1f62b8-497e-42fd-8ea6-975a5a2f0f10))
  (no_connect (at 146.05 89.535) (uuid 7affa399-7f3c-4570-8c7a-10cc0115ba0a))
  (no_connect (at 146.05 92.075) (uuid 8a24167e-f934-4524-9f48-601e06792281))
  (no_connect (at 209.55 41.91) (uuid 2ef875d1-9bb3-4315-b8c0-ce4f9c99ecf7))
  (no_connect (at 209.55 44.45) (uuid 5f86149d-ae9f-4569-97dd-1f01959f1c5c))
  (no_connect (at 211.455 88.9) (uuid 919c2e45-542c-41ae-87fb-b29205342f02))
  (no_connect (at 211.455 91.44) (uuid 098739d5-55e8-4228-8748-52fc717a337a))

  (wire (pts (xy 28.956 45.974) (xy 37.846 45.974))
    (stroke (width 0) (type solid) (color 0 0 0 0))
    (uuid b8ad221f-febe-4575-aa52-e376892da591)
  )
  (wire (pts (xy 37.846 43.434) (xy 37.846 45.974))
    (stroke (width 0) (type solid) (color 0 0 0 0))
    (uuid 12b4041a-0fc1-403f-a503-478ca44b36d5)
  )
  (wire (pts (xy 37.846 45.974) (xy 41.656 45.974))
    (stroke (width 0) (type solid) (color 0 0 0 0))
    (uuid b8ad221f-febe-4575-aa52-e376892da591)
  )
  (wire (pts (xy 41.656 43.434) (xy 37.846 43.434))
    (stroke (width 0) (type solid) (color 0 0 0 0))
    (uuid 12b4041a-0fc1-403f-a503-478ca44b36d5)
  )
  (wire (pts (xy 64.516 40.894) (xy 78.486 40.894))
    (stroke (width 0) (type solid) (color 0 0 0 0))
    (uuid 5ca074c0-3975-4e48-8535-7c74e7979992)
  )
  (wire (pts (xy 64.516 45.974) (xy 73.406 45.974))
    (stroke (width 0) (type solid) (color 0 0 0 0))
    (uuid 1bf78008-d974-4864-8a86-c2cd5eef3128)
  )
  (wire (pts (xy 113.03 36.83) (xy 125.73 36.83))
    (stroke (width 0) (type solid) (color 0 0 0 0))
    (uuid 95339b75-8941-4ba9-b16f-db97ff365fbc)
  )
  (wire (pts (xy 113.03 84.455) (xy 125.73 84.455))
    (stroke (width 0) (type solid) (color 0 0 0 0))
    (uuid 9b603930-a006-48f0-8d40-7d4da342109a)
  )
  (wire (pts (xy 146.05 39.37) (xy 156.21 39.37))
    (stroke (width 0) (type solid) (color 0 0 0 0))
    (uuid f0ba6c1d-7aa6-4a53-aab1-3a38d2ba0952)
  )
  (wire (pts (xy 146.05 86.995) (xy 156.21 86.995))
    (stroke (width 0) (type solid) (color 0 0 0 0))
    (uuid 0511892d-d3f2-47dc-9ec0-93748ae7821f)
  )
  (wire (pts (xy 176.53 36.83) (xy 189.23 36.83))
    (stroke (width 0) (type solid) (color 0 0 0 0))
    (uuid 884600d8-daf4-46e4-a636-992bac1ece4d)
  )
  (wire (pts (xy 178.435 83.82) (xy 191.135 83.82))
    (stroke (width 0) (type solid) (color 0 0 0 0))
    (uuid 5e4a0d13-0677-414b-aea8-faf7866f3730)
  )
  (wire (pts (xy 209.55 39.37) (xy 219.71 39.37))
    (stroke (width 0) (type solid) (color 0 0 0 0))
    (uuid 07f6636f-ca22-4894-9df3-9354f78141b1)
  )
  (wire (pts (xy 211.455 86.36) (xy 221.615 86.36))
    (stroke (width 0) (type solid) (color 0 0 0 0))
    (uuid 04dff922-71aa-4434-bfb4-611243380345)
  )
  (polyline (pts (xy 14.605 14.605) (xy 101.6 14.605))
    (stroke (width 0) (type dash) (color 0 0 0 0))
    (uuid 84b8e9a4-53a2-413d-ac5d-659d6621473d)
  )
  (polyline (pts (xy 14.605 76.2) (xy 14.605 14.605))
    (stroke (width 0) (type dash) (color 0 0 0 0))
    (uuid 84b8e9a4-53a2-413d-ac5d-659d6621473d)
  )
  (polyline (pts (xy 101.6 14.605) (xy 101.6 76.2))
    (stroke (width 0) (type dash) (color 0 0 0 0))
    (uuid 84b8e9a4-53a2-413d-ac5d-659d6621473d)
  )
  (polyline (pts (xy 101.6 76.2) (xy 14.605 76.2))
    (stroke (width 0) (type dash) (color 0 0 0 0))
    (uuid 84b8e9a4-53a2-413d-ac5d-659d6621473d)
  )
  (polyline (pts (xy 104.14 14.605) (xy 166.37 14.605))
    (stroke (width 0) (type dash) (color 0 0 0 0))
    (uuid ee0b9587-e842-4981-a8db-d19ce270cbe2)
  )
  (polyline (pts (xy 104.14 59.055) (xy 104.14 14.605))
    (stroke (width 0) (type dash) (color 0 0 0 0))
    (uuid ee0b9587-e842-4981-a8db-d19ce270cbe2)
  )
  (polyline (pts (xy 104.14 61.595) (xy 166.37 61.595))
    (stroke (width 0) (type dash) (color 0 0 0 0))
    (uuid 3e6188c8-d033-4ac4-93df-a1213d791ab1)
  )
  (polyline (pts (xy 104.14 106.045) (xy 104.14 61.595))
    (stroke (width 0) (type dash) (color 0 0 0 0))
    (uuid fb3aa0c3-aa5e-4577-91b8-8605fdfd2baf)
  )
  (polyline (pts (xy 166.37 14.605) (xy 166.37 59.055))
    (stroke (width 0) (type dash) (color 0 0 0 0))
    (uuid ee0b9587-e842-4981-a8db-d19ce270cbe2)
  )
  (polyline (pts (xy 166.37 59.055) (xy 104.14 59.055))
    (stroke (width 0) (type dash) (color 0 0 0 0))
    (uuid ee0b9587-e842-4981-a8db-d19ce270cbe2)
  )
  (polyline (pts (xy 166.37 61.595) (xy 166.37 106.045))
    (stroke (width 0) (type dash) (color 0 0 0 0))
    (uuid 444afc83-c8ac-471d-82a2-3fab7c331bca)
  )
  (polyline (pts (xy 166.37 106.045) (xy 104.14 106.045))
    (stroke (width 0) (type dash) (color 0 0 0 0))
    (uuid 6bf0de99-fa4a-41cc-b61f-899ab7b0299c)
  )
  (polyline (pts (xy 168.91 14.605) (xy 232.41 14.605))
    (stroke (width 0) (type dash) (color 0 0 0 0))
    (uuid c24ff59a-2ead-443e-ac0c-f4e2423cb683)
  )
  (polyline (pts (xy 168.91 59.055) (xy 168.91 14.605))
    (stroke (width 0) (type dash) (color 0 0 0 0))
    (uuid c24ff59a-2ead-443e-ac0c-f4e2423cb683)
  )
  (polyline (pts (xy 168.91 61.595) (xy 232.41 61.595))
    (stroke (width 0) (type dash) (color 0 0 0 0))
    (uuid 84142a09-c7cd-4074-9578-3bfbeab4afc0)
  )
  (polyline (pts (xy 168.91 106.045) (xy 168.91 61.595))
    (stroke (width 0) (type dash) (color 0 0 0 0))
    (uuid eeb33fa9-6699-4a57-90d7-d5e5b3a31204)
  )
  (polyline (pts (xy 232.41 14.605) (xy 232.41 59.055))
    (stroke (width 0) (type dash) (color 0 0 0 0))
    (uuid c24ff59a-2ead-443e-ac0c-f4e2423cb683)
  )
  (polyline (pts (xy 232.41 59.055) (xy 168.91 59.055))
    (stroke (width 0) (type dash) (color 0 0 0 0))
    (uuid c24ff59a-2ead-443e-ac0c-f4e2423cb683)
  )
  (polyline (pts (xy 232.41 61.595) (xy 232.41 106.045))
    (stroke (width 0) (type dash) (color 0 0 0 0))
    (uuid f5b988fc-1528-4bc1-b8fb-c9f3297676cf)
  )
  (polyline (pts (xy 232.41 106.045) (xy 168.91 106.045))
    (stroke (width 0) (type dash) (color 0 0 0 0))
    (uuid 1e52c270-960b-4a3e-8c93-73a007d1e688)
  )

  (text "Based on photo provided by MickGyver:\nhttps://github.com/MickGyver/DaemonBite-Retro-Controllers-USB/tree/master/NESControllersUSB\n\nThis version has four joystick ports instead of only two. So Mick's source will need to be modified.\n\nRemember to solder over J1 to run at 5V"
    (at 27.305 143.51 0)
    (effects (font (size 2.54 2.54)) (justify left bottom))
    (uuid 2655962d-72ee-48b1-af36-f2d02184e5c9)
  )
  (text "Pro Micro" (at 35.56 26.67 0)
    (effects (font (size 5.08 5.08) (thickness 1.016) bold) (justify left bottom))
    (uuid 5957a5e7-0576-4dd3-86cd-c677de82dd09)
  )
  (text "Port 1" (at 122.555 25.4 0)
    (effects (font (size 5.08 5.08) (thickness 1.016) bold) (justify left bottom))
    (uuid 4630e2ea-bcdd-4ca8-8229-3a06cebe57c4)
  )
  (text "Port 3" (at 122.555 72.39 0)
    (effects (font (size 5.08 5.08) (thickness 1.016) bold) (justify left bottom))
    (uuid 66f79a30-27c8-4f99-9868-9379681cf951)
  )
  (text "Port 2" (at 184.785 25.4 0)
    (effects (font (size 5.08 5.08) (thickness 1.016) bold) (justify left bottom))
    (uuid 19b5383f-013b-4c99-9cb2-0f62e8c49308)
  )
  (text "Port 4" (at 184.785 72.39 0)
    (effects (font (size 5.08 5.08) (thickness 1.016) bold) (justify left bottom))
    (uuid fe683003-5444-4ec7-b544-490ee1f08fa7)
  )

  (global_label "LATCH" (shape output) (at 41.656 48.514 180) (fields_autoplaced)
    (effects (font (size 1.27 1.27)) (justify right))
    (uuid e3705bd0-63ff-4c20-80f6-de4366a10eae)
    (property "Intersheet References" "${INTERSHEET_REFS}" (id 0) (at 33.6534 48.4346 0)
      (effects (font (size 1.27 1.27)) (justify right) hide)
    )
  )
  (global_label "CLOCK" (shape output) (at 41.656 51.054 180) (fields_autoplaced)
    (effects (font (size 1.27 1.27)) (justify right))
    (uuid 3792da2e-fec2-4bce-985c-186e3f335a4f)
    (property "Intersheet References" "${INTERSHEET_REFS}" (id 0) (at 33.1696 50.9746 0)
      (effects (font (size 1.27 1.27)) (justify right) hide)
    )
  )
  (global_label "4_DATA" (shape input) (at 64.516 48.514 0) (fields_autoplaced)
    (effects (font (size 1.27 1.27)) (justify left))
    (uuid 145ac418-e263-44e4-9a46-b5ddb6739678)
    (property "Intersheet References" "${INTERSHEET_REFS}" (id 0) (at 73.4257 48.5934 0)
      (effects (font (size 1.27 1.27)) (justify left) hide)
    )
  )
  (global_label "3_DATA" (shape input) (at 64.516 51.054 0) (fields_autoplaced)
    (effects (font (size 1.27 1.27)) (justify left))
    (uuid de7d4f38-3d0b-4adc-97c0-0876e3b849e8)
    (property "Intersheet References" "${INTERSHEET_REFS}" (id 0) (at 73.4257 51.1334 0)
      (effects (font (size 1.27 1.27)) (justify left) hide)
    )
  )
  (global_label "2_DATA" (shape input) (at 64.516 53.594 0) (fields_autoplaced)
    (effects (font (size 1.27 1.27)) (justify left))
    (uuid 1ec9962a-d87a-41c7-a970-0a6dc0218b04)
    (property "Intersheet References" "${INTERSHEET_REFS}" (id 0) (at 73.4257 53.6734 0)
      (effects (font (size 1.27 1.27)) (justify left) hide)
    )
  )
  (global_label "1_DATA" (shape input) (at 64.516 56.134 0) (fields_autoplaced)
    (effects (font (size 1.27 1.27)) (justify left))
    (uuid fc874d85-c0bd-45a9-ab30-6d549d3472db)
    (property "Intersheet References" "${INTERSHEET_REFS}" (id 0) (at 73.4257 56.2134 0)
      (effects (font (size 1.27 1.27)) (justify left) hide)
    )
  )
  (global_label "CLOCK" (shape input) (at 125.73 39.37 180) (fields_autoplaced)
    (effects (font (size 1.27 1.27)) (justify right))
    (uuid 8560bb5e-6bd2-409a-9c13-6b4762c4f44a)
    (property "Intersheet References" "${INTERSHEET_REFS}" (id 0) (at 117.2436 39.2906 0)
      (effects (font (size 1.27 1.27)) (justify right) hide)
    )
  )
  (global_label "LATCH" (shape input) (at 125.73 41.91 180) (fields_autoplaced)
    (effects (font (size 1.27 1.27)) (justify right))
    (uuid 6a0c021e-4fdd-4f01-beaa-362d20509aee)
    (property "Intersheet References" "${INTERSHEET_REFS}" (id 0) (at 117.7274 41.8306 0)
      (effects (font (size 1.27 1.27)) (justify right) hide)
    )
  )
  (global_label "1_DATA" (shape output) (at 125.73 44.45 180) (fields_autoplaced)
    (effects (font (size 1.27 1.27)) (justify right))
    (uuid 405954a1-14c8-402c-ac8f-f67b5042f75c)
    (property "Intersheet References" "${INTERSHEET_REFS}" (id 0) (at 116.8203 44.3706 0)
      (effects (font (size 1.27 1.27)) (justify right) hide)
    )
  )
  (global_label "CLOCK" (shape input) (at 125.73 86.995 180) (fields_autoplaced)
    (effects (font (size 1.27 1.27)) (justify right))
    (uuid 7d816ce6-6c2d-41ab-9a1d-5fed7f1d0596)
    (property "Intersheet References" "${INTERSHEET_REFS}" (id 0) (at 117.2436 86.9156 0)
      (effects (font (size 1.27 1.27)) (justify right) hide)
    )
  )
  (global_label "LATCH" (shape input) (at 125.73 89.535 180) (fields_autoplaced)
    (effects (font (size 1.27 1.27)) (justify right))
    (uuid 98d2ee39-1e9d-4113-b88d-b9c22e07f054)
    (property "Intersheet References" "${INTERSHEET_REFS}" (id 0) (at 117.7274 89.4556 0)
      (effects (font (size 1.27 1.27)) (justify right) hide)
    )
  )
  (global_label "3_DATA" (shape output) (at 125.73 92.075 180) (fields_autoplaced)
    (effects (font (size 1.27 1.27)) (justify right))
    (uuid 40d295ae-fc72-49b0-8c02-65bf03470ca9)
    (property "Intersheet References" "${INTERSHEET_REFS}" (id 0) (at 116.8203 91.9956 0)
      (effects (font (size 1.27 1.27)) (justify right) hide)
    )
  )
  (global_label "CLOCK" (shape input) (at 189.23 39.37 180) (fields_autoplaced)
    (effects (font (size 1.27 1.27)) (justify right))
    (uuid 3feeed1e-902a-46b0-a5d2-d3d86ce6c694)
    (property "Intersheet References" "${INTERSHEET_REFS}" (id 0) (at 180.7436 39.2906 0)
      (effects (font (size 1.27 1.27)) (justify right) hide)
    )
  )
  (global_label "LATCH" (shape input) (at 189.23 41.91 180) (fields_autoplaced)
    (effects (font (size 1.27 1.27)) (justify right))
    (uuid 293770dd-7c8a-4bad-9187-00a3af44ec57)
    (property "Intersheet References" "${INTERSHEET_REFS}" (id 0) (at 181.2274 41.8306 0)
      (effects (font (size 1.27 1.27)) (justify right) hide)
    )
  )
  (global_label "2_DATA" (shape output) (at 189.23 44.45 180) (fields_autoplaced)
    (effects (font (size 1.27 1.27)) (justify right))
    (uuid a8e773d3-fec1-43ea-8931-4ca5453cb91e)
    (property "Intersheet References" "${INTERSHEET_REFS}" (id 0) (at 180.3203 44.3706 0)
      (effects (font (size 1.27 1.27)) (justify right) hide)
    )
  )
  (global_label "CLOCK" (shape input) (at 191.135 86.36 180) (fields_autoplaced)
    (effects (font (size 1.27 1.27)) (justify right))
    (uuid af0c4885-65b8-47bc-854d-1f1d83934821)
    (property "Intersheet References" "${INTERSHEET_REFS}" (id 0) (at 182.6486 86.2806 0)
      (effects (font (size 1.27 1.27)) (justify right) hide)
    )
  )
  (global_label "LATCH" (shape input) (at 191.135 88.9 180) (fields_autoplaced)
    (effects (font (size 1.27 1.27)) (justify right))
    (uuid 17441c56-7cbc-418d-9593-59fb014223a1)
    (property "Intersheet References" "${INTERSHEET_REFS}" (id 0) (at 183.1324 88.8206 0)
      (effects (font (size 1.27 1.27)) (justify right) hide)
    )
  )
  (global_label "4_DATA" (shape output) (at 191.135 91.44 180) (fields_autoplaced)
    (effects (font (size 1.27 1.27)) (justify right))
    (uuid 535646d1-92c0-48b9-96e9-66c657962fff)
    (property "Intersheet References" "${INTERSHEET_REFS}" (id 0) (at 182.2253 91.3606 0)
      (effects (font (size 1.27 1.27)) (justify right) hide)
    )
  )

  (symbol (lib_id "power:+5V") (at 73.406 45.974 0) (unit 1)
    (in_bom yes) (on_board yes) (fields_autoplaced)
    (uuid 9b3d0bb8-5f38-4b7f-9bf6-b2eb05764b22)
    (property "Reference" "#PWR0109" (id 0) (at 73.406 49.784 0)
      (effects (font (size 1.27 1.27)) hide)
    )
    (property "Value" "+5V" (id 1) (at 73.406 42.3694 0))
    (property "Footprint" "" (id 2) (at 73.406 45.974 0)
      (effects (font (size 1.27 1.27)) hide)
    )
    (property "Datasheet" "" (id 3) (at 73.406 45.974 0)
      (effects (font (size 1.27 1.27)) hide)
    )
    (pin "1" (uuid a6d1d399-056d-43d3-ae3c-5819d298a0f1))
  )

  (symbol (lib_id "power:+5V") (at 156.21 39.37 0) (unit 1)
    (in_bom yes) (on_board yes) (fields_autoplaced)
    (uuid a26e9d0e-7053-4eed-bb66-4a92ff01a67e)
    (property "Reference" "#PWR0101" (id 0) (at 156.21 43.18 0)
      (effects (font (size 1.27 1.27)) hide)
    )
    (property "Value" "+5V" (id 1) (at 156.21 35.7654 0))
    (property "Footprint" "" (id 2) (at 156.21 39.37 0)
      (effects (font (size 1.27 1.27)) hide)
    )
    (property "Datasheet" "" (id 3) (at 156.21 39.37 0)
      (effects (font (size 1.27 1.27)) hide)
    )
    (pin "1" (uuid 9a34e491-2a8d-483f-bf54-ba23c45aa44b))
  )

  (symbol (lib_id "power:+5V") (at 156.21 86.995 0) (unit 1)
    (in_bom yes) (on_board yes) (fields_autoplaced)
    (uuid 2cd8aeaa-ae23-4048-b445-34ed196e532b)
    (property "Reference" "#PWR0106" (id 0) (at 156.21 90.805 0)
      (effects (font (size 1.27 1.27)) hide)
    )
    (property "Value" "+5V" (id 1) (at 156.21 83.3904 0))
    (property "Footprint" "" (id 2) (at 156.21 86.995 0)
      (effects (font (size 1.27 1.27)) hide)
    )
    (property "Datasheet" "" (id 3) (at 156.21 86.995 0)
      (effects (font (size 1.27 1.27)) hide)
    )
    (pin "1" (uuid 7e6692f7-db71-429d-bf85-c31b301a864c))
  )

  (symbol (lib_id "power:+5V") (at 219.71 39.37 0) (unit 1)
    (in_bom yes) (on_board yes) (fields_autoplaced)
    (uuid 5c2454b4-b978-429a-bf6c-ba1b2577a3b3)
    (property "Reference" "#PWR0105" (id 0) (at 219.71 43.18 0)
      (effects (font (size 1.27 1.27)) hide)
    )
    (property "Value" "+5V" (id 1) (at 219.71 35.7654 0))
    (property "Footprint" "" (id 2) (at 219.71 39.37 0)
      (effects (font (size 1.27 1.27)) hide)
    )
    (property "Datasheet" "" (id 3) (at 219.71 39.37 0)
      (effects (font (size 1.27 1.27)) hide)
    )
    (pin "1" (uuid 61498f25-4575-4419-ad6e-b020bb2f9fa3))
  )

  (symbol (lib_id "power:+5V") (at 221.615 86.36 0) (unit 1)
    (in_bom yes) (on_board yes) (fields_autoplaced)
    (uuid 0aa5ce56-495c-491c-be37-79f513c82b5a)
    (property "Reference" "#PWR0104" (id 0) (at 221.615 90.17 0)
      (effects (font (size 1.27 1.27)) hide)
    )
    (property "Value" "+5V" (id 1) (at 221.615 82.7554 0))
    (property "Footprint" "" (id 2) (at 221.615 86.36 0)
      (effects (font (size 1.27 1.27)) hide)
    )
    (property "Datasheet" "" (id 3) (at 221.615 86.36 0)
      (effects (font (size 1.27 1.27)) hide)
    )
    (pin "1" (uuid 70f63102-eb67-481e-a4a7-e198104a8c2e))
  )

  (symbol (lib_id "power:GND") (at 28.956 45.974 0) (unit 1)
    (in_bom yes) (on_board yes) (fields_autoplaced)
    (uuid a88a12e2-971c-4f1c-88bb-9e303b6d74cd)
    (property "Reference" "#PWR0111" (id 0) (at 28.956 52.324 0)
      (effects (font (size 1.27 1.27)) hide)
    )
    (property "Value" "GND" (id 1) (at 28.956 50.5366 0))
    (property "Footprint" "" (id 2) (at 28.956 45.974 0)
      (effects (font (size 1.27 1.27)) hide)
    )
    (property "Datasheet" "" (id 3) (at 28.956 45.974 0)
      (effects (font (size 1.27 1.27)) hide)
    )
    (pin "1" (uuid 01f1c641-735b-4d0b-a2db-6227176628a7))
  )

  (symbol (lib_id "power:GND") (at 78.486 40.894 0) (unit 1)
    (in_bom yes) (on_board yes) (fields_autoplaced)
    (uuid 2f2c7d11-15da-479c-9509-7bcb1d373c7f)
    (property "Reference" "#PWR0110" (id 0) (at 78.486 47.244 0)
      (effects (font (size 1.27 1.27)) hide)
    )
    (property "Value" "GND" (id 1) (at 78.486 45.4566 0))
    (property "Footprint" "" (id 2) (at 78.486 40.894 0)
      (effects (font (size 1.27 1.27)) hide)
    )
    (property "Datasheet" "" (id 3) (at 78.486 40.894 0)
      (effects (font (size 1.27 1.27)) hide)
    )
    (pin "1" (uuid 7029e5bb-f0f4-45b2-bbdd-488f29910d59))
  )

  (symbol (lib_id "power:GND") (at 113.03 36.83 0) (unit 1)
    (in_bom yes) (on_board yes) (fields_autoplaced)
    (uuid 18d79467-df0f-49e0-b856-af0f1e649883)
    (property "Reference" "#PWR0108" (id 0) (at 113.03 43.18 0)
      (effects (font (size 1.27 1.27)) hide)
    )
    (property "Value" "GND" (id 1) (at 113.03 41.3926 0))
    (property "Footprint" "" (id 2) (at 113.03 36.83 0)
      (effects (font (size 1.27 1.27)) hide)
    )
    (property "Datasheet" "" (id 3) (at 113.03 36.83 0)
      (effects (font (size 1.27 1.27)) hide)
    )
    (pin "1" (uuid 28b14b6e-575d-4171-b029-09445cb6b97e))
  )

  (symbol (lib_id "power:GND") (at 113.03 84.455 0) (unit 1)
    (in_bom yes) (on_board yes) (fields_autoplaced)
    (uuid ce666f6f-6f16-49de-bcbb-ce79bec2d96d)
    (property "Reference" "#PWR0107" (id 0) (at 113.03 90.805 0)
      (effects (font (size 1.27 1.27)) hide)
    )
    (property "Value" "GND" (id 1) (at 113.03 89.0176 0))
    (property "Footprint" "" (id 2) (at 113.03 84.455 0)
      (effects (font (size 1.27 1.27)) hide)
    )
    (property "Datasheet" "" (id 3) (at 113.03 84.455 0)
      (effects (font (size 1.27 1.27)) hide)
    )
    (pin "1" (uuid b95143d5-9455-42fe-9c25-e663249bc3aa))
  )

  (symbol (lib_id "power:GND") (at 176.53 36.83 0) (unit 1)
    (in_bom yes) (on_board yes) (fields_autoplaced)
    (uuid 928153ea-53d5-4e0a-a44f-9392adc76b4e)
    (property "Reference" "#PWR0102" (id 0) (at 176.53 43.18 0)
      (effects (font (size 1.27 1.27)) hide)
    )
    (property "Value" "GND" (id 1) (at 176.53 41.3926 0))
    (property "Footprint" "" (id 2) (at 176.53 36.83 0)
      (effects (font (size 1.27 1.27)) hide)
    )
    (property "Datasheet" "" (id 3) (at 176.53 36.83 0)
      (effects (font (size 1.27 1.27)) hide)
    )
    (pin "1" (uuid c3b523ad-409a-488c-8e4c-f8e3620badc4))
  )

  (symbol (lib_id "power:GND") (at 178.435 83.82 0) (unit 1)
    (in_bom yes) (on_board yes) (fields_autoplaced)
    (uuid b1f6469d-2c01-450a-93a5-ec23db526ce9)
    (property "Reference" "#PWR0103" (id 0) (at 178.435 90.17 0)
      (effects (font (size 1.27 1.27)) hide)
    )
    (property "Value" "GND" (id 1) (at 178.435 88.3826 0))
    (property "Footprint" "" (id 2) (at 178.435 83.82 0)
      (effects (font (size 1.27 1.27)) hide)
    )
    (property "Datasheet" "" (id 3) (at 178.435 83.82 0)
      (effects (font (size 1.27 1.27)) hide)
    )
    (pin "1" (uuid 1239ee0f-504d-4495-a347-085c6c2368b0))
  )

  (symbol (lib_id "(S)NES:NES") (at 135.89 40.64 0) (unit 1)
    (in_bom yes) (on_board yes) (fields_autoplaced)
    (uuid 1256ceee-c8c0-4835-b632-a1ef25066e83)
    (property "Reference" "J1" (id 0) (at 135.89 31.3902 0))
    (property "Value" "NES" (id 1) (at 135.89 34.1653 0))
    (property "Footprint" "(S)NES:NES horizontal" (id 2) (at 135.89 40.64 0)
      (effects (font (size 1.27 1.27)) hide)
    )
    (property "Datasheet" "" (id 3) (at 135.89 40.64 0)
      (effects (font (size 1.27 1.27)) hide)
    )
    (pin "1" (uuid d25f229b-aabf-42e9-9eaf-f04143ec8bb3))
    (pin "2" (uuid a84ce5fc-1158-4c63-8e10-a5496d058b51))
    (pin "3" (uuid cb06c71e-bf7d-46ae-a135-4dc4541de385))
    (pin "4" (uuid 188ee987-d9f7-4ad0-8961-94d383144def))
    (pin "5" (uuid f0a03a93-7a54-4c86-8654-a6b0840c822b))
    (pin "6" (uuid 4a412702-714e-4888-b1a6-f7d148f5387b))
    (pin "7" (uuid 62c72888-8708-4aad-a972-6b8521888e1a))
  )

  (symbol (lib_id "(S)NES:NES") (at 135.89 88.265 0) (unit 1)
    (in_bom yes) (on_board yes) (fields_autoplaced)
    (uuid aac0e378-c7d2-4325-a0cd-42d3fdb1923c)
    (property "Reference" "J3" (id 0) (at 135.89 79.0152 0))
    (property "Value" "NES" (id 1) (at 135.89 81.7903 0))
    (property "Footprint" "(S)NES:NES horizontal" (id 2) (at 135.89 88.265 0)
      (effects (font (size 1.27 1.27)) hide)
    )
    (property "Datasheet" "" (id 3) (at 135.89 88.265 0)
      (effects (font (size 1.27 1.27)) hide)
    )
    (pin "1" (uuid c4383f25-a207-4436-9bab-484adf3fc752))
    (pin "2" (uuid c28f8921-286f-4dc8-8286-6ed730c76382))
    (pin "3" (uuid 051c29ed-cc2a-4d17-b8ba-75c52e0c5918))
    (pin "4" (uuid cfa1c764-9b1e-4d5d-b8ce-f3dfb7cea792))
    (pin "5" (uuid 9571ae1d-707c-4c5a-a7ac-598b8317468d))
    (pin "6" (uuid c32239f4-a62d-4f54-a413-9497f2e5c369))
    (pin "7" (uuid 145beca7-b90d-4fba-96f6-60271a6d1ad8))
  )

  (symbol (lib_id "(S)NES:NES") (at 199.39 40.64 0) (unit 1)
    (in_bom yes) (on_board yes) (fields_autoplaced)
    (uuid b99e8e85-9d64-4e8f-be9e-5b036c08d4a8)
    (property "Reference" "J2" (id 0) (at 199.39 31.3902 0))
    (property "Value" "NES" (id 1) (at 199.39 34.1653 0))
    (property "Footprint" "(S)NES:NES horizontal" (id 2) (at 199.39 40.64 0)
      (effects (font (size 1.27 1.27)) hide)
    )
    (property "Datasheet" "" (id 3) (at 199.39 40.64 0)
      (effects (font (size 1.27 1.27)) hide)
    )
    (pin "1" (uuid 0bd0d792-95f4-48e4-a225-8314682a225f))
    (pin "2" (uuid f6363f3e-8e9f-48d4-addd-bfe5f146d021))
    (pin "3" (uuid f9d68d06-6b6f-4dbb-a934-3778faeaf421))
    (pin "4" (uuid 0cdca006-1bec-446f-836d-5352b0bb1a99))
    (pin "5" (uuid ab0da844-e404-4127-8369-1cdc2390183e))
    (pin "6" (uuid de202ae7-3d86-491b-8c44-56dbe0699a11))
    (pin "7" (uuid c6282686-46ee-422e-9b15-0e30b2b39b6e))
  )

  (symbol (lib_id "(S)NES:NES") (at 201.295 87.63 0) (unit 1)
    (in_bom yes) (on_board yes) (fields_autoplaced)
    (uuid 26f45ba6-4a1e-4508-9cd0-721c9df75b09)
    (property "Reference" "J4" (id 0) (at 201.295 78.3802 0))
    (property "Value" "NES" (id 1) (at 201.295 81.1553 0))
    (property "Footprint" "(S)NES:NES horizontal" (id 2) (at 201.295 87.63 0)
      (effects (font (size 1.27 1.27)) hide)
    )
    (property "Datasheet" "" (id 3) (at 201.295 87.63 0)
      (effects (font (size 1.27 1.27)) hide)
    )
    (pin "1" (uuid 3a08025a-d721-44ee-8964-ffe22b723b9f))
    (pin "2" (uuid 6acf1376-fcf2-4cc7-a079-b1ac2ddb7097))
    (pin "3" (uuid 9d8b9555-03fe-46e6-8855-ce76cfeefcb6))
    (pin "4" (uuid 1fc25da1-38f9-4c92-a2dd-8c33c68c567c))
    (pin "5" (uuid e5419b1d-066b-4bc3-93e5-f044cbd2e2b5))
    (pin "6" (uuid 4fc9dede-f214-4c8c-8eca-481c8902e19c))
    (pin "7" (uuid c9fbd73a-412e-4587-a7f1-44e5afcefa38))
  )

  (symbol (lib_id "Pro Micro:Pro_Micro") (at 53.086 52.324 0) (unit 1)
    (in_bom yes) (on_board yes) (fields_autoplaced)
    (uuid 1d5a4966-5c8b-4ec9-99fc-c83afcb92056)
    (property "Reference" "M1" (id 0) (at 53.086 32.9142 0))
    (property "Value" "Pro_Micro" (id 1) (at 53.086 35.6893 0))
    (property "Footprint" "Pro Micro:Pro Micro" (id 2) (at 53.086 52.324 0)
      (effects (font (size 1.27 1.27)) hide)
    )
    (property "Datasheet" "https://www.sparkfun.com/products/12640" (id 3) (at 53.086 52.324 0)
      (effects (font (size 1.27 1.27)) hide)
    )
    (pin "1" (uuid 855bc02e-1a64-42c8-baf2-f091f46fca16))
    (pin "10" (uuid e9d01d3d-b609-4df3-916b-df94b1b50b5f))
    (pin "11" (uuid 512d175f-65ba-4be4-983a-b7ff1bc78fa4))
    (pin "12" (uuid 060048b3-407c-4b6a-9ccf-39d3fa4bd500))
    (pin "13" (uuid 8879eb8d-1fd8-4b71-b763-09d0866437c4))
    (pin "14" (uuid fbd3f2cc-444b-4ceb-a42a-aae4273a333b))
    (pin "15" (uuid 48d0ec04-f008-421c-954d-8c1f3c42fa97))
    (pin "16" (uuid 1d564bd3-3c9b-42de-8d77-3e84510257b0))
    (pin "17" (uuid 46ef572a-b035-4f65-94ef-40f2b38aa427))
    (pin "18" (uuid f1f0eb68-d903-47ff-892a-d7add76e1774))
    (pin "19" (uuid c63d50c7-c218-4923-b84b-5496d2a3914b))
    (pin "2" (uuid c347ad07-7673-46e4-b850-6bf89efd9b1e))
    (pin "20" (uuid 810897f1-8d5d-4c19-ab11-94aaa13bcfac))
    (pin "21" (uuid d980d75b-8e63-47cc-ad57-6b31085be079))
    (pin "22" (uuid 753a35a2-ec11-4764-a26b-fb04b3e7015f))
    (pin "23" (uuid b8880bac-f05c-4e2b-bc80-77f25a4161e9))
    (pin "24" (uuid 09cd776b-7612-4c9d-85cd-c6f85af62246))
    (pin "3" (uuid 0dc220d7-2f6f-4203-8f2e-51c358c25e3e))
    (pin "4" (uuid 993aee55-fcd1-4fd2-8aa3-60b3a89b8418))
    (pin "5" (uuid b5813723-c02b-4c1e-a504-a8df98d919a8))
    (pin "6" (uuid db5a4e54-e645-4675-99e9-9b80f184e883))
    (pin "7" (uuid 5bcb9952-10be-42c4-953f-ae8f98f7ee35))
    (pin "8" (uuid efbc2c2c-7499-49be-9782-a7bc3d31c08f))
    (pin "9" (uuid ccc102ec-79cd-40c7-9bf6-686b4a1ea472))
  )

  (sheet_instances
    (path "/" (page "1"))
  )

  (symbol_instances
    (path "/a26e9d0e-7053-4eed-bb66-4a92ff01a67e"
      (reference "#PWR0101") (unit 1) (value "+5V") (footprint "")
    )
    (path "/928153ea-53d5-4e0a-a44f-9392adc76b4e"
      (reference "#PWR0102") (unit 1) (value "GND") (footprint "")
    )
    (path "/b1f6469d-2c01-450a-93a5-ec23db526ce9"
      (reference "#PWR0103") (unit 1) (value "GND") (footprint "")
    )
    (path "/0aa5ce56-495c-491c-be37-79f513c82b5a"
      (reference "#PWR0104") (unit 1) (value "+5V") (footprint "")
    )
    (path "/5c2454b4-b978-429a-bf6c-ba1b2577a3b3"
      (reference "#PWR0105") (unit 1) (value "+5V") (footprint "")
    )
    (path "/2cd8aeaa-ae23-4048-b445-34ed196e532b"
      (reference "#PWR0106") (unit 1) (value "+5V") (footprint "")
    )
    (path "/ce666f6f-6f16-49de-bcbb-ce79bec2d96d"
      (reference "#PWR0107") (unit 1) (value "GND") (footprint "")
    )
    (path "/18d79467-df0f-49e0-b856-af0f1e649883"
      (reference "#PWR0108") (unit 1) (value "GND") (footprint "")
    )
    (path "/9b3d0bb8-5f38-4b7f-9bf6-b2eb05764b22"
      (reference "#PWR0109") (unit 1) (value "+5V") (footprint "")
    )
    (path "/2f2c7d11-15da-479c-9509-7bcb1d373c7f"
      (reference "#PWR0110") (unit 1) (value "GND") (footprint "")
    )
    (path "/a88a12e2-971c-4f1c-88bb-9e303b6d74cd"
      (reference "#PWR0111") (unit 1) (value "GND") (footprint "")
    )
    (path "/1256ceee-c8c0-4835-b632-a1ef25066e83"
      (reference "J1") (unit 1) (value "NES") (footprint "(S)NES:NES horizontal")
    )
    (path "/b99e8e85-9d64-4e8f-be9e-5b036c08d4a8"
      (reference "J2") (unit 1) (value "NES") (footprint "(S)NES:NES horizontal")
    )
    (path "/aac0e378-c7d2-4325-a0cd-42d3fdb1923c"
      (reference "J3") (unit 1) (value "NES") (footprint "(S)NES:NES horizontal")
    )
    (path "/26f45ba6-4a1e-4508-9cd0-721c9df75b09"
      (reference "J4") (unit 1) (value "NES") (footprint "(S)NES:NES horizontal")
    )
    (path "/1d5a4966-5c8b-4ec9-99fc-c83afcb92056"
      (reference "M1") (unit 1) (value "Pro_Micro") (footprint "Pro Micro:Pro Micro")
    )
  )
)
