(footprint "SNES vertical" (version 20210722) (generator pcbnew) (layer "F.Cu")
  (tedit 61251CD9)
  (fp_text reference "REF**" (at -12.57 -7.41 unlocked) (layer "F.SilkS")
    (effects (font (size 1 1) (thickness 0.15)))
    (tstamp efbf2b86-d905-4124-a514-b34d523dfd9a)
  )
  (fp_text value "SNES vertical" (at -12.55 7.39 unlocked) (layer "F.Fab")
    (effects (font (size 1 1) (thickness 0.15)))
    (tstamp 96679f9c-e96e-4128-9e62-cf9f1e357ba5)
  )
  (fp_line (start -34.205 -6.15) (end -34.205 6.15) (layer "F.SilkS") (width 0.12) (tstamp 2d3aa54a-c23a-4654-a99f-beea543e8d5e))
  (fp_line (start -34.205 -6.15) (end 2.085 -6.15) (layer "F.SilkS") (width 0.12) (tstamp 31fdf8a9-9e73-46c1-b79d-a42c75d1c930))
  (fp_line (start -32.26 -4.4) (end -32.26 4.4) (layer "F.SilkS") (width 0.12) (tstamp 3a4bca0d-176f-440d-8dfe-4c58860f1720))
  (fp_line (start 2.085 6.15) (end -34.205 6.15) (layer "F.SilkS") (width 0.12) (tstamp 9074fc14-625b-4bd9-b8a3-f26708aceb8f))
  (fp_line (start -30.87 -3.76) (end -30.87 3.76) (layer "F.SilkS") (width 0.12) (tstamp 92c0a750-d3e1-48fb-9acc-5e858db1e684))
  (fp_line (start -29.87 4.76) (end 0 4.76) (layer "F.SilkS") (width 0.12) (tstamp f5bef472-a7a8-4d79-b692-b3ebec2825d7))
  (fp_line (start 0 -4.76) (end -29.87 -4.76) (layer "F.SilkS") (width 0.12) (tstamp f95d3b6e-47fb-405f-bb00-03f3a20efc65))
  (fp_arc (start 0 0) (end 0 6.15) (angle -180) (layer "F.SilkS") (width 0.12) (tstamp 0373211f-4d3f-4a90-af91-cd42a82a9a41))
  (fp_arc (start -30.51 4.4) (end -32.26 4.4) (angle -90) (layer "F.SilkS") (width 0.12) (tstamp 08286d6e-f5e1-449f-856a-7d5d1c5122c0))
  (fp_arc (start -29.87 3.76) (end -30.87 3.76) (angle -90) (layer "F.SilkS") (width 0.12) (tstamp 56d01598-4e48-4caf-8f56-ad2a72bfb436))
  (fp_arc (start -30.51 -4.4) (end -32.26 -4.4) (angle 90) (layer "F.SilkS") (width 0.12) (tstamp 61746276-b4cb-461b-be1b-a0d364aab19e))
  (fp_arc (start 0 0) (end 0 4.76) (angle -180) (layer "F.SilkS") (width 0.12) (tstamp 9eafaf13-32cd-4ba3-8bc6-a093fcb5275d))
  (fp_arc (start 2.085 0) (end 2.085 -6.15) (angle 180) (layer "F.SilkS") (width 0.12) (tstamp c1408823-b798-4186-9fe5-b4e9011d8ee3))
  (fp_arc (start -29.87 -3.76) (end -30.87 -3.76) (angle 90) (layer "F.SilkS") (width 0.12) (tstamp e388128e-1642-4a46-9657-90bae1d6b95b))
  (fp_line (start 0 2.15) (end -26.5 2.15) (layer "F.CrtYd") (width 0.12) (tstamp 39a51bed-a5b3-4647-a69d-83e63305511e))
  (fp_line (start -26.5 -2.15) (end 0.01 -2.15) (layer "F.CrtYd") (width 0.12) (tstamp 52b11855-bce0-4c7b-9f1b-6211825425d3))
  (fp_arc (start 0 0) (end 0 2.15) (angle -180) (layer "F.CrtYd") (width 0.12) (tstamp 3f1da6cc-4f1e-4ad5-8e8d-0e21acea7148))
  (fp_arc (start -26.5 0) (end -26.5 2.15) (angle 180) (layer "F.CrtYd") (width 0.12) (tstamp 5e86a423-d329-4f0a-a1c3-ba64d59c28a9))
  (pad "1" thru_hole circle (at 0 0) (size 2.4 2.4) (drill 1.2) (layers *.Cu *.Mask) (tstamp 70c8635a-ae1c-4308-8b7b-0c7caed3aabf))
  (pad "2" thru_hole circle (at -4 0) (size 2.4 2.4) (drill 1.2) (layers *.Cu *.Mask) (tstamp 2ee8bba9-cf08-422e-aae7-9463bbcfb9c4))
  (pad "3" thru_hole circle (at -8 0) (size 2.4 2.4) (drill 1.2) (layers *.Cu *.Mask) (tstamp 268f98d5-c319-46d3-bcb5-b5c95802904b))
  (pad "4" thru_hole circle (at -14.5 0) (size 2.4 2.4) (drill 1.2) (layers *.Cu *.Mask) (tstamp 5ace2a68-5c08-4ad0-8467-f1e6d40a0420))
  (pad "5" thru_hole circle (at -18.5 0) (size 2.4 2.4) (drill 1.2) (layers *.Cu *.Mask) (tstamp 7cb8a1de-b45b-4bee-894e-f8c602fede1f))
  (pad "6" thru_hole circle (at -22.5 0) (size 2.4 2.4) (drill 1.2) (layers *.Cu *.Mask) (tstamp 130ae86b-246e-4e0b-87ed-f3b50717fbd9))
  (pad "7" thru_hole circle (at -26.5 0) (size 2.4 2.4) (drill 1.2) (layers *.Cu *.Mask) (tstamp ab351e4c-1c9b-478b-a6b0-e69d0dcbbf66))
)
