(kicad_sch (version 20210621) (generator eeschema)

  (uuid 3e8b3406-0658-4e56-837f-6de945628bbf)

  (paper "A4")

  (title_block
    (title "Sega 9-pin dual port")
    (date "2021-08-26")
    (rev "1")
  )

  (lib_symbols
    (symbol "Connector:DB9_Male_MountingHoles" (pin_names (offset 1.016) hide) (in_bom yes) (on_board yes)
      (property "Reference" "J" (id 0) (at 0 16.51 0)
        (effects (font (size 1.27 1.27)))
      )
      (property "Value" "DB9_Male_MountingHoles" (id 1) (at 0 14.605 0)
        (effects (font (size 1.27 1.27)))
      )
      (property "Footprint" "" (id 2) (at 0 0 0)
        (effects (font (size 1.27 1.27)) hide)
      )
      (property "Datasheet" " ~" (id 3) (at 0 0 0)
        (effects (font (size 1.27 1.27)) hide)
      )
      (property "ki_keywords" "connector male D-SUB" (id 4) (at 0 0 0)
        (effects (font (size 1.27 1.27)) hide)
      )
      (property "ki_description" "9-pin male D-SUB connector, Mounting Hole" (id 5) (at 0 0 0)
        (effects (font (size 1.27 1.27)) hide)
      )
      (property "ki_fp_filters" "DSUB*Male*" (id 6) (at 0 0 0)
        (effects (font (size 1.27 1.27)) hide)
      )
      (symbol "DB9_Male_MountingHoles_0_1"
        (circle (center -1.778 -10.16) (radius 0.762) (stroke (width 0)) (fill (type outline)))
        (circle (center -1.778 -5.08) (radius 0.762) (stroke (width 0)) (fill (type outline)))
        (circle (center -1.778 0) (radius 0.762) (stroke (width 0)) (fill (type outline)))
        (circle (center -1.778 5.08) (radius 0.762) (stroke (width 0)) (fill (type outline)))
        (circle (center -1.778 10.16) (radius 0.762) (stroke (width 0)) (fill (type outline)))
        (circle (center 1.27 -7.62) (radius 0.762) (stroke (width 0)) (fill (type outline)))
        (circle (center 1.27 -2.54) (radius 0.762) (stroke (width 0)) (fill (type outline)))
        (circle (center 1.27 2.54) (radius 0.762) (stroke (width 0)) (fill (type outline)))
        (circle (center 1.27 7.62) (radius 0.762) (stroke (width 0)) (fill (type outline)))
        (polyline
          (pts
            (xy -3.81 -10.16)
            (xy -2.54 -10.16)
          )
          (stroke (width 0)) (fill (type none))
        )
        (polyline
          (pts
            (xy -3.81 -7.62)
            (xy 0.508 -7.62)
          )
          (stroke (width 0)) (fill (type none))
        )
        (polyline
          (pts
            (xy -3.81 -5.08)
            (xy -2.54 -5.08)
          )
          (stroke (width 0)) (fill (type none))
        )
        (polyline
          (pts
            (xy -3.81 -2.54)
            (xy 0.508 -2.54)
          )
          (stroke (width 0)) (fill (type none))
        )
        (polyline
          (pts
            (xy -3.81 0)
            (xy -2.54 0)
          )
          (stroke (width 0)) (fill (type none))
        )
        (polyline
          (pts
            (xy -3.81 2.54)
            (xy 0.508 2.54)
          )
          (stroke (width 0)) (fill (type none))
        )
        (polyline
          (pts
            (xy -3.81 5.08)
            (xy -2.54 5.08)
          )
          (stroke (width 0)) (fill (type none))
        )
        (polyline
          (pts
            (xy -3.81 7.62)
            (xy 0.508 7.62)
          )
          (stroke (width 0)) (fill (type none))
        )
        (polyline
          (pts
            (xy -3.81 10.16)
            (xy -2.54 10.16)
          )
          (stroke (width 0)) (fill (type none))
        )
        (polyline
          (pts
            (xy -3.81 -13.335)
            (xy -3.81 13.335)
            (xy 3.81 9.525)
            (xy 3.81 -9.525)
            (xy -3.81 -13.335)
          )
          (stroke (width 0.254)) (fill (type background))
        )
      )
      (symbol "DB9_Male_MountingHoles_1_1"
        (pin passive line (at 0 -15.24 90) (length 3.81)
          (name "PAD" (effects (font (size 1.27 1.27))))
          (number "0" (effects (font (size 1.27 1.27))))
        )
        (pin passive line (at -7.62 -10.16 0) (length 3.81)
          (name "1" (effects (font (size 1.27 1.27))))
          (number "1" (effects (font (size 1.27 1.27))))
        )
        (pin passive line (at -7.62 -5.08 0) (length 3.81)
          (name "2" (effects (font (size 1.27 1.27))))
          (number "2" (effects (font (size 1.27 1.27))))
        )
        (pin passive line (at -7.62 0 0) (length 3.81)
          (name "3" (effects (font (size 1.27 1.27))))
          (number "3" (effects (font (size 1.27 1.27))))
        )
        (pin passive line (at -7.62 5.08 0) (length 3.81)
          (name "4" (effects (font (size 1.27 1.27))))
          (number "4" (effects (font (size 1.27 1.27))))
        )
        (pin passive line (at -7.62 10.16 0) (length 3.81)
          (name "5" (effects (font (size 1.27 1.27))))
          (number "5" (effects (font (size 1.27 1.27))))
        )
        (pin passive line (at -7.62 -7.62 0) (length 3.81)
          (name "6" (effects (font (size 1.27 1.27))))
          (number "6" (effects (font (size 1.27 1.27))))
        )
        (pin passive line (at -7.62 -2.54 0) (length 3.81)
          (name "7" (effects (font (size 1.27 1.27))))
          (number "7" (effects (font (size 1.27 1.27))))
        )
        (pin passive line (at -7.62 2.54 0) (length 3.81)
          (name "8" (effects (font (size 1.27 1.27))))
          (number "8" (effects (font (size 1.27 1.27))))
        )
        (pin passive line (at -7.62 7.62 0) (length 3.81)
          (name "9" (effects (font (size 1.27 1.27))))
          (number "9" (effects (font (size 1.27 1.27))))
        )
      )
    )
    (symbol "Pro Micro:Pro_Micro" (in_bom yes) (on_board yes)
      (property "Reference" "M" (id 0) (at 0 17.018 0)
        (effects (font (size 1.27 1.27)))
      )
      (property "Value" "Pro_Micro" (id 1) (at 0 -17.272 0)
        (effects (font (size 1.27 1.27)))
      )
      (property "Footprint" "Pro Micro:Pro Micro" (id 2) (at 0 0 0)
        (effects (font (size 1.27 1.27)) hide)
      )
      (property "Datasheet" "https://www.sparkfun.com/products/12640" (id 3) (at 0 0 0)
        (effects (font (size 1.27 1.27)) hide)
      )
      (symbol "Pro_Micro_0_1"
        (rectangle (start -8.89 15.494) (end 8.89 -15.494)
          (stroke (width 0.1524)) (fill (type background))
        )
      )
      (symbol "Pro_Micro_1_1"
        (pin output line (at -11.43 13.97 0) (length 2.54)
          (name "TXD" (effects (font (size 1.27 1.27))))
          (number "1" (effects (font (size 1.27 1.27))))
        )
        (pin bidirectional line (at -11.43 -8.89 0) (length 2.54)
          (name "D7" (effects (font (size 1.27 1.27))))
          (number "10" (effects (font (size 1.27 1.27))))
        )
        (pin bidirectional line (at -11.43 -11.43 0) (length 2.54)
          (name "D8" (effects (font (size 1.27 1.27))))
          (number "11" (effects (font (size 1.27 1.27))))
        )
        (pin bidirectional line (at -11.43 -13.97 0) (length 2.54)
          (name "D9" (effects (font (size 1.27 1.27))))
          (number "12" (effects (font (size 1.27 1.27))))
        )
        (pin bidirectional line (at 11.43 -13.97 180) (length 2.54)
          (name "D10" (effects (font (size 1.27 1.27))))
          (number "13" (effects (font (size 1.27 1.27))))
        )
        (pin bidirectional line (at 11.43 -11.43 180) (length 2.54)
          (name "D16" (effects (font (size 1.27 1.27))))
          (number "14" (effects (font (size 1.27 1.27))))
        )
        (pin bidirectional line (at 11.43 -8.89 180) (length 2.54)
          (name "D14" (effects (font (size 1.27 1.27))))
          (number "15" (effects (font (size 1.27 1.27))))
        )
        (pin bidirectional line (at 11.43 -6.35 180) (length 2.54)
          (name "D15" (effects (font (size 1.27 1.27))))
          (number "16" (effects (font (size 1.27 1.27))))
        )
        (pin bidirectional line (at 11.43 -3.81 180) (length 2.54)
          (name "A0" (effects (font (size 1.27 1.27))))
          (number "17" (effects (font (size 1.27 1.27))))
        )
        (pin bidirectional line (at 11.43 -1.27 180) (length 2.54)
          (name "A1" (effects (font (size 1.27 1.27))))
          (number "18" (effects (font (size 1.27 1.27))))
        )
        (pin bidirectional line (at 11.43 1.27 180) (length 2.54)
          (name "A2" (effects (font (size 1.27 1.27))))
          (number "19" (effects (font (size 1.27 1.27))))
        )
        (pin input line (at -11.43 11.43 0) (length 2.54)
          (name "RXD" (effects (font (size 1.27 1.27))))
          (number "2" (effects (font (size 1.27 1.27))))
        )
        (pin bidirectional line (at 11.43 3.81 180) (length 2.54)
          (name "A3" (effects (font (size 1.27 1.27))))
          (number "20" (effects (font (size 1.27 1.27))))
        )
        (pin bidirectional line (at 11.43 6.35 180) (length 2.54)
          (name "VCC" (effects (font (size 1.27 1.27))))
          (number "21" (effects (font (size 1.27 1.27))))
        )
        (pin input line (at 11.43 8.89 180) (length 2.54)
          (name "RST" (effects (font (size 1.27 1.27))))
          (number "22" (effects (font (size 1.27 1.27))))
        )
        (pin bidirectional line (at 11.43 11.43 180) (length 2.54)
          (name "GND" (effects (font (size 1.27 1.27))))
          (number "23" (effects (font (size 1.27 1.27))))
        )
        (pin power_in line (at 11.43 13.97 180) (length 2.54)
          (name "RAW" (effects (font (size 1.27 1.27))))
          (number "24" (effects (font (size 1.27 1.27))))
        )
        (pin bidirectional line (at -11.43 8.89 0) (length 2.54)
          (name "GND" (effects (font (size 1.27 1.27))))
          (number "3" (effects (font (size 1.27 1.27))))
        )
        (pin bidirectional line (at -11.43 6.35 0) (length 2.54)
          (name "GND" (effects (font (size 1.27 1.27))))
          (number "4" (effects (font (size 1.27 1.27))))
        )
        (pin bidirectional line (at -11.43 3.81 0) (length 2.54)
          (name "D2" (effects (font (size 1.27 1.27))))
          (number "5" (effects (font (size 1.27 1.27))))
        )
        (pin bidirectional line (at -11.43 1.27 0) (length 2.54)
          (name "D3" (effects (font (size 1.27 1.27))))
          (number "6" (effects (font (size 1.27 1.27))))
        )
        (pin bidirectional line (at -11.43 -1.27 0) (length 2.54)
          (name "D4" (effects (font (size 1.27 1.27))))
          (number "7" (effects (font (size 1.27 1.27))))
        )
        (pin bidirectional line (at -11.43 -3.81 0) (length 2.54)
          (name "D5" (effects (font (size 1.27 1.27))))
          (number "8" (effects (font (size 1.27 1.27))))
        )
        (pin bidirectional line (at -11.43 -6.35 0) (length 2.54)
          (name "D6" (effects (font (size 1.27 1.27))))
          (number "9" (effects (font (size 1.27 1.27))))
        )
      )
    )
    (symbol "power:+5V" (power) (pin_names (offset 0)) (in_bom yes) (on_board yes)
      (property "Reference" "#PWR" (id 0) (at 0 -3.81 0)
        (effects (font (size 1.27 1.27)) hide)
      )
      (property "Value" "+5V" (id 1) (at 0 3.556 0)
        (effects (font (size 1.27 1.27)))
      )
      (property "Footprint" "" (id 2) (at 0 0 0)
        (effects (font (size 1.27 1.27)) hide)
      )
      (property "Datasheet" "" (id 3) (at 0 0 0)
        (effects (font (size 1.27 1.27)) hide)
      )
      (property "ki_keywords" "power-flag" (id 4) (at 0 0 0)
        (effects (font (size 1.27 1.27)) hide)
      )
      (property "ki_description" "Power symbol creates a global label with name \"+5V\"" (id 5) (at 0 0 0)
        (effects (font (size 1.27 1.27)) hide)
      )
      (symbol "+5V_0_1"
        (polyline
          (pts
            (xy -0.762 1.27)
            (xy 0 2.54)
          )
          (stroke (width 0)) (fill (type none))
        )
        (polyline
          (pts
            (xy 0 0)
            (xy 0 2.54)
          )
          (stroke (width 0)) (fill (type none))
        )
        (polyline
          (pts
            (xy 0 2.54)
            (xy 0.762 1.27)
          )
          (stroke (width 0)) (fill (type none))
        )
      )
      (symbol "+5V_1_1"
        (pin power_in line (at 0 0 90) (length 0) hide
          (name "+5V" (effects (font (size 1.27 1.27))))
          (number "1" (effects (font (size 1.27 1.27))))
        )
      )
    )
    (symbol "power:GND" (power) (pin_names (offset 0)) (in_bom yes) (on_board yes)
      (property "Reference" "#PWR" (id 0) (at 0 -6.35 0)
        (effects (font (size 1.27 1.27)) hide)
      )
      (property "Value" "GND" (id 1) (at 0 -3.81 0)
        (effects (font (size 1.27 1.27)))
      )
      (property "Footprint" "" (id 2) (at 0 0 0)
        (effects (font (size 1.27 1.27)) hide)
      )
      (property "Datasheet" "" (id 3) (at 0 0 0)
        (effects (font (size 1.27 1.27)) hide)
      )
      (property "ki_keywords" "power-flag" (id 4) (at 0 0 0)
        (effects (font (size 1.27 1.27)) hide)
      )
      (property "ki_description" "Power symbol creates a global label with name \"GND\" , ground" (id 5) (at 0 0 0)
        (effects (font (size 1.27 1.27)) hide)
      )
      (symbol "GND_0_1"
        (polyline
          (pts
            (xy 0 0)
            (xy 0 -1.27)
            (xy 1.27 -1.27)
            (xy 0 -2.54)
            (xy -1.27 -1.27)
            (xy 0 -1.27)
          )
          (stroke (width 0)) (fill (type none))
        )
      )
      (symbol "GND_1_1"
        (pin power_in line (at 0 0 270) (length 0) hide
          (name "GND" (effects (font (size 1.27 1.27))))
          (number "1" (effects (font (size 1.27 1.27))))
        )
      )
    )
  )

  (junction (at 40.64 46.99) (diameter 1.016) (color 0 0 0 0))

  (no_connect (at 45.72 64.77) (uuid a0d3f346-26aa-4acb-bf81-7dbbf3217b2b))
  (no_connect (at 45.72 67.31) (uuid a0d3f346-26aa-4acb-bf81-7dbbf3217b2b))
  (no_connect (at 68.58 39.37) (uuid a0d3f346-26aa-4acb-bf81-7dbbf3217b2b))
  (no_connect (at 68.58 44.45) (uuid a0d3f346-26aa-4acb-bf81-7dbbf3217b2b))
  (no_connect (at 68.58 64.77) (uuid a0d3f346-26aa-4acb-bf81-7dbbf3217b2b))
  (no_connect (at 68.58 67.31) (uuid a0d3f346-26aa-4acb-bf81-7dbbf3217b2b))

  (wire (pts (xy 30.48 46.99) (xy 40.64 46.99))
    (stroke (width 0) (type solid) (color 0 0 0 0))
    (uuid b68b5bf6-0eed-4c14-a9b5-a9d4450ba190)
  )
  (wire (pts (xy 40.64 44.45) (xy 40.64 46.99))
    (stroke (width 0) (type solid) (color 0 0 0 0))
    (uuid e81c9297-a614-453b-a399-91ef114c17f5)
  )
  (wire (pts (xy 40.64 46.99) (xy 45.72 46.99))
    (stroke (width 0) (type solid) (color 0 0 0 0))
    (uuid b68b5bf6-0eed-4c14-a9b5-a9d4450ba190)
  )
  (wire (pts (xy 45.72 44.45) (xy 40.64 44.45))
    (stroke (width 0) (type solid) (color 0 0 0 0))
    (uuid e81c9297-a614-453b-a399-91ef114c17f5)
  )
  (wire (pts (xy 68.58 41.91) (xy 83.82 41.91))
    (stroke (width 0) (type solid) (color 0 0 0 0))
    (uuid 49060825-f9e3-4f91-bf69-e9ed85952269)
  )
  (wire (pts (xy 68.58 46.99) (xy 76.2 46.99))
    (stroke (width 0) (type solid) (color 0 0 0 0))
    (uuid a68bf95e-1e08-431f-947c-05fd2c17211c)
  )
  (wire (pts (xy 121.92 36.83) (xy 134.62 36.83))
    (stroke (width 0) (type solid) (color 0 0 0 0))
    (uuid d6409e2c-db8f-48eb-8bf0-c64a38934cd4)
  )
  (wire (pts (xy 121.92 44.45) (xy 134.62 44.45))
    (stroke (width 0) (type solid) (color 0 0 0 0))
    (uuid bc24d2b0-6f04-426b-985c-8274f4fa226b)
  )
  (wire (pts (xy 203.2 38.1) (xy 215.9 38.1))
    (stroke (width 0) (type solid) (color 0 0 0 0))
    (uuid 8ffb1667-e71b-41c2-a0cc-dc18f1e554d5)
  )
  (wire (pts (xy 203.2 45.72) (xy 215.9 45.72))
    (stroke (width 0) (type solid) (color 0 0 0 0))
    (uuid 90746ad4-8eb4-499e-bd45-2fa8b613e7e9)
  )
  (polyline (pts (xy 13.97 13.97) (xy 101.6 13.97))
    (stroke (width 0) (type dash) (color 0 0 0 0))
    (uuid aaa43d13-a2d5-4d35-9447-3b440466986f)
  )
  (polyline (pts (xy 13.97 81.28) (xy 13.97 13.97))
    (stroke (width 0) (type dash) (color 0 0 0 0))
    (uuid aaa43d13-a2d5-4d35-9447-3b440466986f)
  )
  (polyline (pts (xy 101.6 13.97) (xy 101.6 81.28))
    (stroke (width 0) (type dash) (color 0 0 0 0))
    (uuid aaa43d13-a2d5-4d35-9447-3b440466986f)
  )
  (polyline (pts (xy 101.6 81.28) (xy 13.97 81.28))
    (stroke (width 0) (type dash) (color 0 0 0 0))
    (uuid aaa43d13-a2d5-4d35-9447-3b440466986f)
  )
  (polyline (pts (xy 104.14 13.97) (xy 181.61 13.97))
    (stroke (width 0) (type dash) (color 0 0 0 0))
    (uuid 82b01d6d-e431-4ecd-9993-0331930743d3)
  )
  (polyline (pts (xy 104.14 81.28) (xy 104.14 13.97))
    (stroke (width 0) (type dash) (color 0 0 0 0))
    (uuid 82b01d6d-e431-4ecd-9993-0331930743d3)
  )
  (polyline (pts (xy 181.61 13.97) (xy 181.61 81.28))
    (stroke (width 0) (type dash) (color 0 0 0 0))
    (uuid 82b01d6d-e431-4ecd-9993-0331930743d3)
  )
  (polyline (pts (xy 181.61 81.28) (xy 104.14 81.28))
    (stroke (width 0) (type dash) (color 0 0 0 0))
    (uuid 82b01d6d-e431-4ecd-9993-0331930743d3)
  )
  (polyline (pts (xy 184.15 13.97) (xy 260.35 13.97))
    (stroke (width 0) (type dash) (color 0 0 0 0))
    (uuid 2515fef3-775b-44d6-943b-f3f8b31824b6)
  )
  (polyline (pts (xy 184.15 81.28) (xy 184.15 13.97))
    (stroke (width 0) (type dash) (color 0 0 0 0))
    (uuid 2515fef3-775b-44d6-943b-f3f8b31824b6)
  )
  (polyline (pts (xy 260.35 13.97) (xy 260.35 81.28))
    (stroke (width 0) (type dash) (color 0 0 0 0))
    (uuid 2515fef3-775b-44d6-943b-f3f8b31824b6)
  )
  (polyline (pts (xy 260.35 81.28) (xy 184.15 81.28))
    (stroke (width 0) (type dash) (color 0 0 0 0))
    (uuid 2515fef3-775b-44d6-943b-f3f8b31824b6)
  )

  (text "Based on photo provided by MickGyver:\nhttps://github.com/MickGyver/DaemonBite-Retro-Controllers-USB/tree/master/SegaTwoControllersUSB\n\nRemember to solder over J1 to run at 5V"
    (at 26.67 109.22 0)
    (effects (font (size 2.54 2.54)) (justify left bottom))
    (uuid 11c5e200-e323-4d3f-ba8b-7a746560c970)
  )
  (text "Pro Micro" (at 39.37 24.13 0)
    (effects (font (size 5.08 5.08) (thickness 1.016) bold) (justify left bottom))
    (uuid 1a69961f-410a-4495-8999-f3df86ecb797)
  )
  (text "Port 1" (at 129.54 25.4 0)
    (effects (font (size 5.08 5.08) (thickness 1.016) bold) (justify left bottom))
    (uuid 815620a7-6434-4c75-b871-a53ca94aa8b7)
  )
  (text "Port 2" (at 209.55 24.13 0)
    (effects (font (size 5.08 5.08) (thickness 1.016) bold) (justify left bottom))
    (uuid 6b983158-6ba7-49da-bcb3-20d3e54e85dc)
  )

  (global_label "2_UP" (shape input) (at 45.72 39.37 180) (fields_autoplaced)
    (effects (font (size 1.27 1.27)) (justify right))
    (uuid 187255a5-5f60-46ae-a712-c75c05be388d)
    (property "Intersheet References" "${INTERSHEET_REFS}" (id 0) (at 38.6246 39.2906 0)
      (effects (font (size 1.27 1.27)) (justify right) hide)
    )
  )
  (global_label "2_DOWN" (shape input) (at 45.72 41.91 180) (fields_autoplaced)
    (effects (font (size 1.27 1.27)) (justify right))
    (uuid 5d79affb-4d0e-405f-ac69-3e4a6dfc391b)
    (property "Intersheet References" "${INTERSHEET_REFS}" (id 0) (at 35.8427 41.8306 0)
      (effects (font (size 1.27 1.27)) (justify right) hide)
    )
  )
  (global_label "2_LEFT" (shape input) (at 45.72 49.53 180) (fields_autoplaced)
    (effects (font (size 1.27 1.27)) (justify right))
    (uuid aa2b9552-c3e9-4d20-be44-7d591d9a8d73)
    (property "Intersheet References" "${INTERSHEET_REFS}" (id 0) (at 36.9917 49.4506 0)
      (effects (font (size 1.27 1.27)) (justify right) hide)
    )
  )
  (global_label "2_RIGHT" (shape input) (at 45.72 52.07 180) (fields_autoplaced)
    (effects (font (size 1.27 1.27)) (justify right))
    (uuid e72f91e3-15dc-4a12-b1a0-9a766d80b732)
    (property "Intersheet References" "${INTERSHEET_REFS}" (id 0) (at 35.7822 51.9906 0)
      (effects (font (size 1.27 1.27)) (justify right) hide)
    )
  )
  (global_label "2_TL" (shape input) (at 45.72 54.61 180) (fields_autoplaced)
    (effects (font (size 1.27 1.27)) (justify right))
    (uuid a469c9bc-6a49-45ae-8779-008b6fb3a877)
    (property "Intersheet References" "${INTERSHEET_REFS}" (id 0) (at 39.2293 54.5306 0)
      (effects (font (size 1.27 1.27)) (justify right) hide)
    )
  )
  (global_label "2_TH" (shape input) (at 45.72 57.15 180) (fields_autoplaced)
    (effects (font (size 1.27 1.27)) (justify right))
    (uuid 80d51c54-54ac-4703-817f-fcf6b5dc28e2)
    (property "Intersheet References" "${INTERSHEET_REFS}" (id 0) (at 38.927 57.0706 0)
      (effects (font (size 1.27 1.27)) (justify right) hide)
    )
  )
  (global_label "2_TR" (shape input) (at 45.72 59.69 180) (fields_autoplaced)
    (effects (font (size 1.27 1.27)) (justify right))
    (uuid e277c73f-bd74-49b1-b0b4-92ff844e1eb2)
    (property "Intersheet References" "${INTERSHEET_REFS}" (id 0) (at 38.9874 59.6106 0)
      (effects (font (size 1.27 1.27)) (justify right) hide)
    )
  )
  (global_label "1_TH" (shape input) (at 45.72 62.23 180) (fields_autoplaced)
    (effects (font (size 1.27 1.27)) (justify right))
    (uuid 98293407-a212-4aa3-8b12-632e3883ae44)
    (property "Intersheet References" "${INTERSHEET_REFS}" (id 0) (at 38.927 62.1506 0)
      (effects (font (size 1.27 1.27)) (justify right) hide)
    )
  )
  (global_label "1_RIGHT" (shape input) (at 68.58 49.53 0) (fields_autoplaced)
    (effects (font (size 1.27 1.27)) (justify left))
    (uuid 90f19c51-80a3-434c-b293-f72460950d3b)
    (property "Intersheet References" "${INTERSHEET_REFS}" (id 0) (at 78.5178 49.6094 0)
      (effects (font (size 1.27 1.27)) (justify left) hide)
    )
  )
  (global_label "1_LEFT" (shape input) (at 68.58 52.07 0) (fields_autoplaced)
    (effects (font (size 1.27 1.27)) (justify left))
    (uuid 57a3eddc-5815-4338-b399-50ca70cd58b4)
    (property "Intersheet References" "${INTERSHEET_REFS}" (id 0) (at 77.3083 52.1494 0)
      (effects (font (size 1.27 1.27)) (justify left) hide)
    )
  )
  (global_label "1_DOWN" (shape input) (at 68.58 54.61 0) (fields_autoplaced)
    (effects (font (size 1.27 1.27)) (justify left))
    (uuid 3d521e10-44dc-4d84-a1a1-8e275ef31fd6)
    (property "Intersheet References" "${INTERSHEET_REFS}" (id 0) (at 78.4573 54.6894 0)
      (effects (font (size 1.27 1.27)) (justify left) hide)
    )
  )
  (global_label "1_UP" (shape input) (at 68.58 57.15 0) (fields_autoplaced)
    (effects (font (size 1.27 1.27)) (justify left))
    (uuid 59677c68-0653-4471-a839-9b347d809f28)
    (property "Intersheet References" "${INTERSHEET_REFS}" (id 0) (at 75.6754 57.2294 0)
      (effects (font (size 1.27 1.27)) (justify left) hide)
    )
  )
  (global_label "1_TR" (shape input) (at 68.58 59.69 0) (fields_autoplaced)
    (effects (font (size 1.27 1.27)) (justify left))
    (uuid 66650453-5d53-4fea-b4a0-c1972b60e825)
    (property "Intersheet References" "${INTERSHEET_REFS}" (id 0) (at 75.3126 59.7694 0)
      (effects (font (size 1.27 1.27)) (justify left) hide)
    )
  )
  (global_label "1_TL" (shape input) (at 68.58 62.23 0) (fields_autoplaced)
    (effects (font (size 1.27 1.27)) (justify left))
    (uuid a8edee23-0e23-4214-8a3b-67ecb0dbfa7c)
    (property "Intersheet References" "${INTERSHEET_REFS}" (id 0) (at 75.0707 62.3094 0)
      (effects (font (size 1.27 1.27)) (justify left) hide)
    )
  )
  (global_label "1_TR" (shape output) (at 134.62 39.37 180) (fields_autoplaced)
    (effects (font (size 1.27 1.27)) (justify right))
    (uuid e2f8c103-31c3-4398-ad4e-ec3bde0661d8)
    (property "Intersheet References" "${INTERSHEET_REFS}" (id 0) (at 127.8874 39.2906 0)
      (effects (font (size 1.27 1.27)) (justify right) hide)
    )
  )
  (global_label "1_RIGHT" (shape output) (at 134.62 41.91 180) (fields_autoplaced)
    (effects (font (size 1.27 1.27)) (justify right))
    (uuid a63d3612-eb73-4d2b-a317-c20fcfb5a002)
    (property "Intersheet References" "${INTERSHEET_REFS}" (id 0) (at 124.6822 41.8306 0)
      (effects (font (size 1.27 1.27)) (justify right) hide)
    )
  )
  (global_label "1_LEFT" (shape output) (at 134.62 46.99 180) (fields_autoplaced)
    (effects (font (size 1.27 1.27)) (justify right))
    (uuid 4d990322-1ae1-444b-a1b0-ec771e0b1aad)
    (property "Intersheet References" "${INTERSHEET_REFS}" (id 0) (at 125.8917 46.9106 0)
      (effects (font (size 1.27 1.27)) (justify right) hide)
    )
  )
  (global_label "1_TH" (shape output) (at 134.62 49.53 180) (fields_autoplaced)
    (effects (font (size 1.27 1.27)) (justify right))
    (uuid 85943f5a-5b2c-428d-8a81-3c1d830efd03)
    (property "Intersheet References" "${INTERSHEET_REFS}" (id 0) (at 127.827 49.4506 0)
      (effects (font (size 1.27 1.27)) (justify right) hide)
    )
  )
  (global_label "1_DOWN" (shape output) (at 134.62 52.07 180) (fields_autoplaced)
    (effects (font (size 1.27 1.27)) (justify right))
    (uuid ad1a1597-a070-4214-989c-83c598d10458)
    (property "Intersheet References" "${INTERSHEET_REFS}" (id 0) (at 124.7427 51.9906 0)
      (effects (font (size 1.27 1.27)) (justify right) hide)
    )
  )
  (global_label "1_TL" (shape output) (at 134.62 54.61 180) (fields_autoplaced)
    (effects (font (size 1.27 1.27)) (justify right))
    (uuid 1328f854-d263-40f4-b514-b91010cb6142)
    (property "Intersheet References" "${INTERSHEET_REFS}" (id 0) (at 128.1293 54.5306 0)
      (effects (font (size 1.27 1.27)) (justify right) hide)
    )
  )
  (global_label "1_UP" (shape output) (at 134.62 57.15 180) (fields_autoplaced)
    (effects (font (size 1.27 1.27)) (justify right))
    (uuid 56402f6d-c3d3-491c-b885-f6c0d319ccb2)
    (property "Intersheet References" "${INTERSHEET_REFS}" (id 0) (at 127.5246 57.0706 0)
      (effects (font (size 1.27 1.27)) (justify right) hide)
    )
  )
  (global_label "2_TR" (shape output) (at 215.9 40.64 180) (fields_autoplaced)
    (effects (font (size 1.27 1.27)) (justify right))
    (uuid 1ef93631-c3fd-4e1b-993e-c5a8373f7fab)
    (property "Intersheet References" "${INTERSHEET_REFS}" (id 0) (at 209.1674 40.5606 0)
      (effects (font (size 1.27 1.27)) (justify right) hide)
    )
  )
  (global_label "2_RIGHT" (shape output) (at 215.9 43.18 180) (fields_autoplaced)
    (effects (font (size 1.27 1.27)) (justify right))
    (uuid d696d1b5-d7f3-4cce-a8af-69e8c60cfb9b)
    (property "Intersheet References" "${INTERSHEET_REFS}" (id 0) (at 205.9622 43.1006 0)
      (effects (font (size 1.27 1.27)) (justify right) hide)
    )
  )
  (global_label "2_LEFT" (shape output) (at 215.9 48.26 180) (fields_autoplaced)
    (effects (font (size 1.27 1.27)) (justify right))
    (uuid 5859b3bc-9ef3-44b9-ae27-b8029d3fe23e)
    (property "Intersheet References" "${INTERSHEET_REFS}" (id 0) (at 207.1717 48.1806 0)
      (effects (font (size 1.27 1.27)) (justify right) hide)
    )
  )
  (global_label "2_TH" (shape output) (at 215.9 50.8 180) (fields_autoplaced)
    (effects (font (size 1.27 1.27)) (justify right))
    (uuid b785cb2a-07ed-4b31-8f3a-099ae549ece3)
    (property "Intersheet References" "${INTERSHEET_REFS}" (id 0) (at 209.107 50.7206 0)
      (effects (font (size 1.27 1.27)) (justify right) hide)
    )
  )
  (global_label "2_DOWN" (shape output) (at 215.9 53.34 180) (fields_autoplaced)
    (effects (font (size 1.27 1.27)) (justify right))
    (uuid 1db78500-e054-4cc4-aed7-41e86a581f77)
    (property "Intersheet References" "${INTERSHEET_REFS}" (id 0) (at 206.0227 53.2606 0)
      (effects (font (size 1.27 1.27)) (justify right) hide)
    )
  )
  (global_label "2_TL" (shape output) (at 215.9 55.88 180) (fields_autoplaced)
    (effects (font (size 1.27 1.27)) (justify right))
    (uuid a4b8b1b9-da14-4160-b36c-4310496172f9)
    (property "Intersheet References" "${INTERSHEET_REFS}" (id 0) (at 209.4093 55.8006 0)
      (effects (font (size 1.27 1.27)) (justify right) hide)
    )
  )
  (global_label "2_UP" (shape output) (at 215.9 58.42 180) (fields_autoplaced)
    (effects (font (size 1.27 1.27)) (justify right))
    (uuid 71650af3-d59f-4465-8eeb-41110614cd25)
    (property "Intersheet References" "${INTERSHEET_REFS}" (id 0) (at 208.8046 58.3406 0)
      (effects (font (size 1.27 1.27)) (justify right) hide)
    )
  )

  (symbol (lib_id "power:+5V") (at 76.2 46.99 0) (unit 1)
    (in_bom yes) (on_board yes) (fields_autoplaced)
    (uuid dcf2d5aa-2d56-494f-913c-018f0145f7cd)
    (property "Reference" "#PWR0107" (id 0) (at 76.2 50.8 0)
      (effects (font (size 1.27 1.27)) hide)
    )
    (property "Value" "+5V" (id 1) (at 76.2 43.3854 0))
    (property "Footprint" "" (id 2) (at 76.2 46.99 0)
      (effects (font (size 1.27 1.27)) hide)
    )
    (property "Datasheet" "" (id 3) (at 76.2 46.99 0)
      (effects (font (size 1.27 1.27)) hide)
    )
    (pin "1" (uuid 4fd7c88d-3d9e-4292-be5a-a086480f9b57))
  )

  (symbol (lib_id "power:+5V") (at 121.92 36.83 0) (unit 1)
    (in_bom yes) (on_board yes) (fields_autoplaced)
    (uuid fd24fcc7-62ff-482a-9e94-66ea517a1694)
    (property "Reference" "#PWR0102" (id 0) (at 121.92 40.64 0)
      (effects (font (size 1.27 1.27)) hide)
    )
    (property "Value" "+5V" (id 1) (at 121.92 33.2254 0))
    (property "Footprint" "" (id 2) (at 121.92 36.83 0)
      (effects (font (size 1.27 1.27)) hide)
    )
    (property "Datasheet" "" (id 3) (at 121.92 36.83 0)
      (effects (font (size 1.27 1.27)) hide)
    )
    (pin "1" (uuid 5fd6bd9d-d888-4d24-a127-3c71434ad3a7))
  )

  (symbol (lib_id "power:+5V") (at 203.2 38.1 0) (unit 1)
    (in_bom yes) (on_board yes) (fields_autoplaced)
    (uuid a930a5eb-96cd-4971-9335-ef4b8f136247)
    (property "Reference" "#PWR0104" (id 0) (at 203.2 41.91 0)
      (effects (font (size 1.27 1.27)) hide)
    )
    (property "Value" "+5V" (id 1) (at 203.2 34.4954 0))
    (property "Footprint" "" (id 2) (at 203.2 38.1 0)
      (effects (font (size 1.27 1.27)) hide)
    )
    (property "Datasheet" "" (id 3) (at 203.2 38.1 0)
      (effects (font (size 1.27 1.27)) hide)
    )
    (pin "1" (uuid 7b96476b-5df7-48aa-8098-e3086b054d81))
  )

  (symbol (lib_id "power:GND") (at 30.48 46.99 0) (unit 1)
    (in_bom yes) (on_board yes) (fields_autoplaced)
    (uuid 77119de4-a41b-4d71-adc5-06f28f31ed5b)
    (property "Reference" "#PWR0105" (id 0) (at 30.48 53.34 0)
      (effects (font (size 1.27 1.27)) hide)
    )
    (property "Value" "GND" (id 1) (at 30.48 51.5526 0))
    (property "Footprint" "" (id 2) (at 30.48 46.99 0)
      (effects (font (size 1.27 1.27)) hide)
    )
    (property "Datasheet" "" (id 3) (at 30.48 46.99 0)
      (effects (font (size 1.27 1.27)) hide)
    )
    (pin "1" (uuid 88a22642-a0f8-45ac-ae4f-d750ee653e05))
  )

  (symbol (lib_id "power:GND") (at 83.82 41.91 0) (unit 1)
    (in_bom yes) (on_board yes) (fields_autoplaced)
    (uuid b61b3da5-ec87-4d9f-8519-a9eca59c5809)
    (property "Reference" "#PWR0106" (id 0) (at 83.82 48.26 0)
      (effects (font (size 1.27 1.27)) hide)
    )
    (property "Value" "GND" (id 1) (at 83.82 46.4726 0))
    (property "Footprint" "" (id 2) (at 83.82 41.91 0)
      (effects (font (size 1.27 1.27)) hide)
    )
    (property "Datasheet" "" (id 3) (at 83.82 41.91 0)
      (effects (font (size 1.27 1.27)) hide)
    )
    (pin "1" (uuid a6f7487e-9846-4d3d-89dd-a43b5d7c139d))
  )

  (symbol (lib_id "power:GND") (at 121.92 44.45 0) (unit 1)
    (in_bom yes) (on_board yes) (fields_autoplaced)
    (uuid 36ac7328-458e-4d3b-a478-64a1da9a702a)
    (property "Reference" "#PWR0101" (id 0) (at 121.92 50.8 0)
      (effects (font (size 1.27 1.27)) hide)
    )
    (property "Value" "GND" (id 1) (at 121.92 49.0126 0))
    (property "Footprint" "" (id 2) (at 121.92 44.45 0)
      (effects (font (size 1.27 1.27)) hide)
    )
    (property "Datasheet" "" (id 3) (at 121.92 44.45 0)
      (effects (font (size 1.27 1.27)) hide)
    )
    (pin "1" (uuid 404dddde-5cd3-4ede-8bab-bb2827051572))
  )

  (symbol (lib_id "power:GND") (at 142.24 62.23 0) (unit 1)
    (in_bom yes) (on_board yes) (fields_autoplaced)
    (uuid 7f00d45e-1041-4462-9ff1-2f2d3ccbee31)
    (property "Reference" "#PWR0108" (id 0) (at 142.24 68.58 0)
      (effects (font (size 1.27 1.27)) hide)
    )
    (property "Value" "GND" (id 1) (at 142.24 66.7926 0))
    (property "Footprint" "" (id 2) (at 142.24 62.23 0)
      (effects (font (size 1.27 1.27)) hide)
    )
    (property "Datasheet" "" (id 3) (at 142.24 62.23 0)
      (effects (font (size 1.27 1.27)) hide)
    )
    (pin "1" (uuid 6becd176-39a9-46c2-bd4a-a2e5fd1caefa))
  )

  (symbol (lib_id "power:GND") (at 203.2 45.72 0) (unit 1)
    (in_bom yes) (on_board yes) (fields_autoplaced)
    (uuid 04dc53d4-a394-49cb-b52d-061a5437037c)
    (property "Reference" "#PWR0103" (id 0) (at 203.2 52.07 0)
      (effects (font (size 1.27 1.27)) hide)
    )
    (property "Value" "GND" (id 1) (at 203.2 50.2826 0))
    (property "Footprint" "" (id 2) (at 203.2 45.72 0)
      (effects (font (size 1.27 1.27)) hide)
    )
    (property "Datasheet" "" (id 3) (at 203.2 45.72 0)
      (effects (font (size 1.27 1.27)) hide)
    )
    (pin "1" (uuid 2b107c91-539d-4752-bbce-e9648a994cd0))
  )

  (symbol (lib_id "power:GND") (at 223.52 63.5 0) (unit 1)
    (in_bom yes) (on_board yes) (fields_autoplaced)
    (uuid ce691507-e007-4c9e-a7c9-fbc6c760372d)
    (property "Reference" "#PWR0109" (id 0) (at 223.52 69.85 0)
      (effects (font (size 1.27 1.27)) hide)
    )
    (property "Value" "GND" (id 1) (at 223.52 68.0626 0))
    (property "Footprint" "" (id 2) (at 223.52 63.5 0)
      (effects (font (size 1.27 1.27)) hide)
    )
    (property "Datasheet" "" (id 3) (at 223.52 63.5 0)
      (effects (font (size 1.27 1.27)) hide)
    )
    (pin "1" (uuid 6c6dc178-5cbc-4c0a-af50-5b4ad375e4be))
  )

  (symbol (lib_id "Connector:DB9_Male_MountingHoles") (at 142.24 46.99 0) (unit 1)
    (in_bom yes) (on_board yes) (fields_autoplaced)
    (uuid 0abd4fc3-6b63-4681-aff0-a4b69a3701c3)
    (property "Reference" "J1" (id 0) (at 146.8121 47.161 0)
      (effects (font (size 1.27 1.27)) (justify left))
    )
    (property "Value" "DB9_Male_MountingHoles" (id 1) (at 146.8121 49.9361 0)
      (effects (font (size 1.27 1.27)) (justify left))
    )
    (property "Footprint" "Connector_Dsub:DSUB-9_Male_Horizontal_P2.77x2.84mm_EdgePinOffset4.94mm_Housed_MountingHolesOffset7.48mm" (id 2) (at 142.24 46.99 0)
      (effects (font (size 1.27 1.27)) hide)
    )
    (property "Datasheet" " ~" (id 3) (at 142.24 46.99 0)
      (effects (font (size 1.27 1.27)) hide)
    )
    (pin "0" (uuid 099cfaf4-aa44-401c-8452-eb1010dfe7dd))
    (pin "1" (uuid feb8babf-1eda-4335-a49c-c80971e4b21e))
    (pin "2" (uuid b7e14d25-99a1-484a-94db-ac9542bfd8f5))
    (pin "3" (uuid 2247a8fa-a070-4b67-a8d0-5fa8ba9a808f))
    (pin "4" (uuid 46472f0b-bfe1-4b79-a0e5-1f7081565b42))
    (pin "5" (uuid 70dde24b-b9ce-4ca9-8199-96a7373f92ce))
    (pin "6" (uuid c0d37b7b-c0de-4237-93d7-09209af692fb))
    (pin "7" (uuid 829bf49b-950e-4552-ba51-813d4ca866c1))
    (pin "8" (uuid bd3d6f08-bfe3-410a-8d48-1dfc5df2e868))
    (pin "9" (uuid 58d158f6-486f-40f6-b3dc-7afc9ed6d39f))
  )

  (symbol (lib_id "Connector:DB9_Male_MountingHoles") (at 223.52 48.26 0) (unit 1)
    (in_bom yes) (on_board yes) (fields_autoplaced)
    (uuid bdd13d4b-3ea0-46cf-9863-ab900eaf1f70)
    (property "Reference" "J2" (id 0) (at 228.0921 48.431 0)
      (effects (font (size 1.27 1.27)) (justify left))
    )
    (property "Value" "DB9_Male_MountingHoles" (id 1) (at 228.0921 51.2061 0)
      (effects (font (size 1.27 1.27)) (justify left))
    )
    (property "Footprint" "Connector_Dsub:DSUB-9_Male_Horizontal_P2.77x2.84mm_EdgePinOffset4.94mm_Housed_MountingHolesOffset7.48mm" (id 2) (at 223.52 48.26 0)
      (effects (font (size 1.27 1.27)) hide)
    )
    (property "Datasheet" " ~" (id 3) (at 223.52 48.26 0)
      (effects (font (size 1.27 1.27)) hide)
    )
    (pin "0" (uuid d06292fe-33ef-47ad-9f24-be13620faf63))
    (pin "1" (uuid ff11dfeb-06bd-439c-9af7-783b8edbdc71))
    (pin "2" (uuid dcab7847-42dc-4fda-b505-8377d0700c9d))
    (pin "3" (uuid 70a34ccc-0efc-4242-bcff-6dfe973973c2))
    (pin "4" (uuid 86d2fb15-5216-480f-bca0-739fe09f2c0e))
    (pin "5" (uuid 3fec68b3-29f8-4c1e-9e67-1c8e640319c5))
    (pin "6" (uuid 4a200684-8f5b-4795-8891-4a6083a261e6))
    (pin "7" (uuid f9fef980-3101-4532-a2f6-d6b4d2375116))
    (pin "8" (uuid 7c70f601-a3e8-472b-9102-47ad2c8f6309))
    (pin "9" (uuid eacaf8ec-a3a5-4e4f-a4f4-0478e0852f1a))
  )

  (symbol (lib_id "Pro Micro:Pro_Micro") (at 57.15 53.34 0) (unit 1)
    (in_bom yes) (on_board yes) (fields_autoplaced)
    (uuid 4aed6ff7-3363-4eba-af42-921f7fa7eaa1)
    (property "Reference" "M1" (id 0) (at 57.15 33.9302 0))
    (property "Value" "Pro_Micro" (id 1) (at 57.15 36.7053 0))
    (property "Footprint" "Pro Micro:Qwiic Pro Micro USB-C" (id 2) (at 57.15 53.34 0)
      (effects (font (size 1.27 1.27)) hide)
    )
    (property "Datasheet" "https://www.sparkfun.com/products/12640" (id 3) (at 57.15 53.34 0)
      (effects (font (size 1.27 1.27)) hide)
    )
    (pin "1" (uuid 9f55d9bd-91a8-4145-b215-d1be1de97f5f))
    (pin "10" (uuid 8860df23-375f-4783-b276-e8a64535e552))
    (pin "11" (uuid a20c89d4-dfd4-4ec8-8ee8-78a8fa9a6b11))
    (pin "12" (uuid fc452dbd-47e4-44c8-9c4a-802f2d3337e4))
    (pin "13" (uuid 1eaf4978-9602-421b-b17f-f4a48dc826ce))
    (pin "14" (uuid e9ad0685-5ad0-46da-b0d5-20aea11f6fa2))
    (pin "15" (uuid c27b3c55-ba29-4091-a228-6025b4f840dd))
    (pin "16" (uuid d932f0fc-eee4-4cca-8101-82125620df1f))
    (pin "17" (uuid 33aee6b4-e2b8-4022-bccf-2f133813f6ea))
    (pin "18" (uuid 3258857a-c6a6-43c9-a3da-976b837dba11))
    (pin "19" (uuid f0509a10-55a4-46af-9b44-6e3fdd631dbb))
    (pin "2" (uuid 64c15b2a-df9f-48b6-a9ad-b402d7492c72))
    (pin "20" (uuid ff889ccc-66c0-4eed-b1cd-91a59965c792))
    (pin "21" (uuid b02a2151-b55c-40b1-8ced-25cbf8a3dadc))
    (pin "22" (uuid eff23a2d-9549-43cf-9424-09eb71e9f757))
    (pin "23" (uuid 043d13a5-9e25-4e9f-884c-a24878c172de))
    (pin "24" (uuid f71a8053-8c93-456c-8694-e634309cc528))
    (pin "3" (uuid bd88f1c8-42f6-4fc5-b615-038bd80c83d2))
    (pin "4" (uuid 78e55ceb-35c3-4d0d-aec8-db37901b29fe))
    (pin "5" (uuid 4b40191e-fe76-4c71-ba9e-0ed7e927303f))
    (pin "6" (uuid 3fdf7b53-c421-42d2-b804-623e08b367af))
    (pin "7" (uuid 3854532c-5552-4ad3-a85b-264b238dc4c3))
    (pin "8" (uuid 31243e8b-51ab-4e9f-ac8b-1ac51a0d1318))
    (pin "9" (uuid 3ecfe7bb-23ad-47bb-b1d9-44e786638181))
  )

  (sheet_instances
    (path "/" (page "1"))
  )

  (symbol_instances
    (path "/36ac7328-458e-4d3b-a478-64a1da9a702a"
      (reference "#PWR0101") (unit 1) (value "GND") (footprint "")
    )
    (path "/fd24fcc7-62ff-482a-9e94-66ea517a1694"
      (reference "#PWR0102") (unit 1) (value "+5V") (footprint "")
    )
    (path "/04dc53d4-a394-49cb-b52d-061a5437037c"
      (reference "#PWR0103") (unit 1) (value "GND") (footprint "")
    )
    (path "/a930a5eb-96cd-4971-9335-ef4b8f136247"
      (reference "#PWR0104") (unit 1) (value "+5V") (footprint "")
    )
    (path "/77119de4-a41b-4d71-adc5-06f28f31ed5b"
      (reference "#PWR0105") (unit 1) (value "GND") (footprint "")
    )
    (path "/b61b3da5-ec87-4d9f-8519-a9eca59c5809"
      (reference "#PWR0106") (unit 1) (value "GND") (footprint "")
    )
    (path "/dcf2d5aa-2d56-494f-913c-018f0145f7cd"
      (reference "#PWR0107") (unit 1) (value "+5V") (footprint "")
    )
    (path "/7f00d45e-1041-4462-9ff1-2f2d3ccbee31"
      (reference "#PWR0108") (unit 1) (value "GND") (footprint "")
    )
    (path "/ce691507-e007-4c9e-a7c9-fbc6c760372d"
      (reference "#PWR0109") (unit 1) (value "GND") (footprint "")
    )
    (path "/0abd4fc3-6b63-4681-aff0-a4b69a3701c3"
      (reference "J1") (unit 1) (value "DB9_Male_MountingHoles") (footprint "Connector_Dsub:DSUB-9_Male_Horizontal_P2.77x2.84mm_EdgePinOffset4.94mm_Housed_MountingHolesOffset7.48mm")
    )
    (path "/bdd13d4b-3ea0-46cf-9863-ab900eaf1f70"
      (reference "J2") (unit 1) (value "DB9_Male_MountingHoles") (footprint "Connector_Dsub:DSUB-9_Male_Horizontal_P2.77x2.84mm_EdgePinOffset4.94mm_Housed_MountingHolesOffset7.48mm")
    )
    (path "/4aed6ff7-3363-4eba-af42-921f7fa7eaa1"
      (reference "M1") (unit 1) (value "Pro_Micro") (footprint "Pro Micro:Qwiic Pro Micro USB-C")
    )
  )
)
